…
The following `(df <- gapminder)` is a short-hand of 

```
df <- gapminder
df
```


```r
(df <- gapminder)
#> # A tibble: 1,704 × 6
#>    country     continent  year lifeExp      pop gdpPercap
#>    <fct>       <fct>     <int>   <dbl>    <int>     <dbl>
#>  1 Afghanistan Asia       1952    28.8  8425333      779.
#>  2 Afghanistan Asia       1957    30.3  9240934      821.
#>  3 Afghanistan Asia       1962    32.0 10267083      853.
#>  4 Afghanistan Asia       1967    34.0 11537966      836.
#>  5 Afghanistan Asia       1972    36.1 13079460      740.
#>  6 Afghanistan Asia       1977    38.4 14880372      786.
#>  7 Afghanistan Asia       1982    39.9 12881816      978.
#>  8 Afghanistan Asia       1987    40.8 13867957      852.
#>  9 Afghanistan Asia       1992    41.7 16317921      649.
#> 10 Afghanistan Asia       1997    41.8 22227415      635.
#> # … with 1,694 more rows
```
…
  - uptake: a numeric vector of carbon dioxide uptake rates (\mu\mbox{mol}/m^2μmol/m 2
  sec).
  
* **Details**: The CO_2 uptake of six plants from Quebec and six plants from Mississippi was measured at several levels of ambient CO_2 concentration. Half the plants of each type were chilled overnight before the experiment was conducted.
  - This dataset was originally part of package nlme, and that has methods (including for [, as.data.frame, plot and print) for its grouped-data classes.

* **Source**: Potvin, C., Lechowicz, M. J. and Tardif, S. (1990) “The statistical analysis of ecophysiological response curves obtained from experiments involving repeated measures”, Ecology, 71, 1389–1400.
  - Pinheiro, J. C. and Bates, D. M. (2000) Mixed-effects Models in S and S-PLUS, Springer.



```r
df_co2 <- as_tibble(datasets::CO2) # what happens if simply `df_co2 <- datasets::CO2`
df_co2
#> # A tibble: 84 × 5
#>    Plant Type   Treatment   conc uptake
#>    <ord> <fct>  <fct>      <dbl>  <dbl>
#>  1 Qn1   Quebec nonchilled    95   16  
#>  2 Qn1   Quebec nonchilled   175   30.4
#>  3 Qn1   Quebec nonchilled   250   34.8
#>  4 Qn1   Quebec nonchilled   350   37.2
#>  5 Qn1   Quebec nonchilled   500   35.3
#>  6 Qn1   Quebec nonchilled   675   39.2
#>  7 Qn1   Quebec nonchilled  1000   39.7
#>  8 Qn2   Quebec nonchilled    95   13.6
#>  9 Qn2   Quebec nonchilled   175   27.3
#> 10 Qn2   Quebec nonchilled   250   37.1
#> # … with 74 more rows
```
…
```r
df_sb <- as_tibble(datasets::Seatbelts)
df_sb
#> # A tibble: 192 × 8
#>    Drivers…¹ drivers front  rear   kms Petro…² VanKi…³   law
#>        <dbl>   <dbl> <dbl> <dbl> <dbl>   <dbl>   <dbl> <dbl>
#>  1       107    1687   867   269  9059   0.103      12     0
#>  2        97    1508   825   265  7685   0.102       6     0
#>  3       102    1507   806   319  9963   0.102      12     0
#>  4        87    1385   814   407 10955   0.101       8     0
#>  5       119    1632   991   454 11823   0.101      10     0
#>  6       106    1511   945   427 12391   0.101      13     0
#>  7       110    1559  1004   522 13460   0.104      11     0
#>  8       106    1630  1091   536 14055   0.104       6     0
#>  9       107    1579   958   405 12106   0.104      10     0
#> 10       134    1653   850   437 11372   0.103      16     0
#> # … with 182 more rows, and abbreviated variable names
#> #   ¹​DriversKilled, ²​PetrolPrice, ³​VanKilled
```
…
<img src="06-a2resp_files/figure-html/unnamed-chunk-28-1.png" width="672" />

What can you see above?

We will learn how to use `pivot_longer` and `pivot_wider` in EDA4.


```r
df_sb %>% 
  pivot_longer(cols = 2:4, names_to = "seat", values_to = "value")
#> # A tibble: 576 × 7
#>    DriversKilled   kms PetrolPrice VanKi…¹   law seat  value
#>            <dbl> <dbl>       <dbl>   <dbl> <dbl> <chr> <dbl>
#>  1           107  9059       0.103      12     0 driv…  1687
#>  2           107  9059       0.103      12     0 front   867
#>  3           107  9059       0.103      12     0 rear    269
#>  4            97  7685       0.102       6     0 driv…  1508
#>  5            97  7685       0.102       6     0 front   825
#>  6            97  7685       0.102       6     0 rear    265
#>  7           102  9963       0.102      12     0 driv…  1507
#>  8           102  9963       0.102      12     0 front   806
#>  9           102  9963       0.102      12     0 rear    319
#> 10            87 10955       0.101       8     0 driv…  1385
#> # … with 566 more rows, and abbreviated variable name
#> #   ¹​VanKilled
```
…
<img src="06-a2resp_files/figure-html/unnamed-chunk-50-1.png" width="672" />



## Responses to Questions

### Q1. Two categorical variables and one numerical variables

Eg. [Smoking, Alcohol and (O)esophageal Cancer](https://stat.ethz.ch/R-manual/R-devel/library/datasets/html/esoph.html)


```r
(df_esoph <- as_tibble(esoph))
#> # A tibble: 88 × 5
#>    agegp alcgp     tobgp    ncases ncontrols
#>    <ord> <ord>     <ord>     <dbl>     <dbl>
#>  1 25-34 0-39g/day 0-9g/day      0        40
#>  2 25-34 0-39g/day 10-19         0        10
#>  3 25-34 0-39g/day 20-29         0         6
#>  4 25-34 0-39g/day 30+           0         5
#>  5 25-34 40-79     0-9g/day      0        27
#>  6 25-34 40-79     10-19         0         7
#>  7 25-34 40-79     20-29         0         4
#>  8 25-34 40-79     30+           0         7
#>  9 25-34 80-119    0-9g/day      0         2
#> 10 25-34 80-119    10-19         0         1
#> # … with 78 more rows
```
…
