…
#### `augment`

* The first column is the vector corresponding to y.
* The second column is the vector corresponding to x.
* `.fitted` is the y value of the fitted line. So
$$.fitted = y-intercept + slope \cdot x.$$
* `.resid` is the residue, i.e., y-value minus .fitted (or predicted) value.


```r
mod %>% augment() %>% arrange(Sepal.Width)
#> # A tibble: 150 × 8
#>    Sepal.Length Sepal.Width .fitted  .resid   .hat .sigma
#>           <dbl>       <dbl>   <dbl>   <dbl>  <dbl>  <dbl>
#>  1          5           2      6.08 -1.08   0.0462  0.823
#>  2          6           2.2    6.03 -0.0348 0.0326  0.828
#>  3          6.2         2.2    6.03  0.165  0.0326  0.828
#>  4          6           2.2    6.03 -0.0348 0.0326  0.828
#>  5          4.5         2.3    6.01 -1.51   0.0269  0.818
#>  6          5.5         2.3    6.01 -0.512  0.0269  0.827
#>  7          6.3         2.3    6.01  0.288  0.0269  0.828
#>  8          5           2.3    6.01 -1.01   0.0269  0.824
#>  9          4.9         2.4    5.99 -1.09   0.0219  0.823
#> 10          5.5         2.4    5.99 -0.490  0.0219  0.827
#> # ℹ 140 more rows
#> # ℹ 2 more variables: .cooksd <dbl>, .std.resid <dbl>
```
…
