…
A matrix is returned. If the list is long, it is easier to see the pairs of the titles and chart_ids by adding `as_tibble()`.


```r
owid_search("emissions") %>% as_tibble()
#> # A tibble: 157 × 2
#>    titles                                           chart_id
#>    <chr>                                            <chr>   
#>  1 Air pollutant emissions                          air-pol…
#>  2 Emissions of air pollutants                      emissio…
#>  3 Emissions of air pollutants                      emissio…
#>  4 Emissions of particulate matter                  emissio…
#>  5 Global sulphur dioxide (SO₂) emissions by world… so-emis…
#>  6 Sulphur dioxide (SO₂) emissions                  so2-emi…
#>  7 Sulphur dioxide (SO₂) emissions                  so-emis…
#>  8 Sulphur dioxide (SO₂) emissions per capita       so-emis…
#>  9 Sulphur oxide (SO₂) emissions                    sulphur…
#> 10 Annual CO2 emissions from land-use change per c… co2-lan…
#> # ℹ 147 more rows
```
…
`chard_id`: The chart_id as returned by owid_search, which is combined with '-'. Don't mix up with the chart titles.

`rename`: Rename the value column. Currently only works if their is just one value col- umn.

* Example


```r
emissions <- owid("per-capita-ghg-emissions")
```


```r
emissions
#> # A tibble: 35,646 × 4
#>    entity      code   year Per-capita greenhouse gas emiss…¹
#>  * <chr>       <chr> <int>                             <dbl>
#>  1 Afghanistan AFG    1850                              1.94
#>  2 Afghanistan AFG    1851                              1.96
#>  3 Afghanistan AFG    1852                              1.96
#>  4 Afghanistan AFG    1853                              1.97
#>  5 Afghanistan AFG    1854                              1.97
#>  6 Afghanistan AFG    1855                              1.97
#>  7 Afghanistan AFG    1856                              1.98
#>  8 Afghanistan AFG    1857                              1.98
#>  9 Afghanistan AFG    1858                              1.99
#> 10 Afghanistan AFG    1859                              1.99
#> # ℹ 35,636 more rows
#> # ℹ abbreviated name:
#> #   ¹​`Per-capita greenhouse gas emissions in CO2 equivalents`
```


```r
rights <- owid("human-rights-scores")
```


```r
rights
#> # A tibble: 11,273 × 4
#>    entity      code   year `Human rights protection`
#>  * <chr>       <chr> <int>                     <dbl>
#>  1 Afghanistan AFG    1946                     0.829
#>  2 Afghanistan AFG    1947                     0.878
#>  3 Afghanistan AFG    1948                     0.935
#>  4 Afghanistan AFG    1949                     0.966
#>  5 Afghanistan AFG    1950                     1.01 
#>  6 Afghanistan AFG    1951                     1.09 
#>  7 Afghanistan AFG    1952                     1.13 
#>  8 Afghanistan AFG    1953                     1.18 
#>  9 Afghanistan AFG    1954                     1.22 
#> 10 Afghanistan AFG    1955                     1.22 
#> # ℹ 11,263 more rows
```

**Note.**

1. You can use `rename` to change column names. For example, 


```r
owid("per-capita-ghg-emissions", rename = "ghgPcap")
#> # A tibble: 35,646 × 4
#>    entity      code   year ghgPcap
#>  * <chr>       <chr> <int>   <dbl>
#>  1 Afghanistan AFG    1850    1.94
#>  2 Afghanistan AFG    1851    1.96
#>  3 Afghanistan AFG    1852    1.96
#>  4 Afghanistan AFG    1853    1.97
#>  5 Afghanistan AFG    1854    1.97
#>  6 Afghanistan AFG    1855    1.97
#>  7 Afghanistan AFG    1856    1.98
#>  8 Afghanistan AFG    1857    1.98
#>  9 Afghanistan AFG    1858    1.99
#> 10 Afghanistan AFG    1859    1.99
#> # ℹ 35,636 more rows
```

2. Since until after importing the data, you never know the original column name, and how many columns are for indicators. It is natural to change column names using `dpyr::rename`. In the next example, I used `Total including LUCF`. However, 'Total including LUCF' and "Total including LUCF" work as well.


```r
emissions %>% rename(ghgPcap = `Per-capita greenhouse gas emissions in CO2 equivalents`)
#> # A tibble: 35,646 × 4
#>    entity      code   year ghgPcap
#>  * <chr>       <chr> <int>   <dbl>
#>  1 Afghanistan AFG    1850    1.94
#>  2 Afghanistan AFG    1851    1.96
#>  3 Afghanistan AFG    1852    1.96
#>  4 Afghanistan AFG    1853    1.97
#>  5 Afghanistan AFG    1854    1.97
#>  6 Afghanistan AFG    1855    1.97
#>  7 Afghanistan AFG    1856    1.98
#>  8 Afghanistan AFG    1857    1.98
#>  9 Afghanistan AFG    1858    1.99
#> 10 Afghanistan AFG    1859    1.99
#> # ℹ 35,636 more rows
```
…
```r
owid("electoral-democracy", rename = c("electoral_democracy", "vdem_high", "vdem_low"))
#> # A tibble: 32,518 × 6
#>    entity code   year electoral_democracy vdem_high vdem_low
#>  * <chr>  <chr> <int>               <dbl>     <dbl>    <dbl>
#>  1 Afgha… AFG    1789               0.019     0.024     0.01
#>  2 Afgha… AFG    1790               0.019     0.024     0.01
#>  3 Afgha… AFG    1791               0.019     0.024     0.01
#>  4 Afgha… AFG    1792               0.019     0.024     0.01
#>  5 Afgha… AFG    1793               0.019     0.024     0.01
#>  6 Afgha… AFG    1794               0.019     0.024     0.01
#>  7 Afgha… AFG    1795               0.019     0.024     0.01
#>  8 Afgha… AFG    1796               0.019     0.024     0.01
#>  9 Afgha… AFG    1797               0.019     0.024     0.01
#> 10 Afgha… AFG    1798               0.019     0.024     0.01
#> # ℹ 32,508 more rows
```


4. You can use `dplyr::rename`, and keep the record of renaming column names.


```r
(democracy <- owid("electoral-democracy"))
#> # A tibble: 32,518 × 6
#>    entity      code   year `Electoral democracy`
#>  * <chr>       <chr> <int>                 <dbl>
#>  1 Afghanistan AFG    1789                 0.019
#>  2 Afghanistan AFG    1790                 0.019
#>  3 Afghanistan AFG    1791                 0.019
#>  4 Afghanistan AFG    1792                 0.019
#>  5 Afghanistan AFG    1793                 0.019
#>  6 Afghanistan AFG    1794                 0.019
#>  7 Afghanistan AFG    1795                 0.019
#>  8 Afghanistan AFG    1796                 0.019
#>  9 Afghanistan AFG    1797                 0.019
#> 10 Afghanistan AFG    1798                 0.019
#> # ℹ 32,508 more rows
#> # ℹ 2 more variables: electdem_vdem_high_owid <dbl>,
#> #   electdem_vdem_low_owid <dbl>
```



```r
democracy <- democracy %>% 
  rename(`electoral_democracy` = `Electoral democracy`,  
         `vdem_high` = `electdem_vdem_high_owid`, 
         `electdem_vdem_low_owid` = `electdem_vdem_low_owid`)
democracy
#> # A tibble: 32,518 × 6
#>    entity      code   year electoral_democracy vdem_high
#>  * <chr>       <chr> <int>               <dbl>     <dbl>
#>  1 Afghanistan AFG    1789               0.019     0.024
#>  2 Afghanistan AFG    1790               0.019     0.024
#>  3 Afghanistan AFG    1791               0.019     0.024
#>  4 Afghanistan AFG    1792               0.019     0.024
#>  5 Afghanistan AFG    1793               0.019     0.024
#>  6 Afghanistan AFG    1794               0.019     0.024
#>  7 Afghanistan AFG    1795               0.019     0.024
#>  8 Afghanistan AFG    1796               0.019     0.024
#>  9 Afghanistan AFG    1797               0.019     0.024
#> 10 Afghanistan AFG    1798               0.019     0.024
#> # ℹ 32,508 more rows
#> # ℹ 1 more variable: electdem_vdem_low_owid <dbl>
```
…
See the detail at the [GitHub site](https://github.com/owid/covid-19-data/tree/master/public/data#data-on-covid-19-coronavirus-by-our-world-in-data).

* Example


```r
covid <- owid_covid()
```


```r
covid %>% filter(location == "Japan")
#> # A tibble: 1,221 × 67
#>    iso_code continent location date       total_cases
#>    <chr>    <chr>     <chr>    <date>           <dbl>
#>  1 JPN      Asia      Japan    2020-01-03          NA
#>  2 JPN      Asia      Japan    2020-01-04          NA
#>  3 JPN      Asia      Japan    2020-01-05          NA
#>  4 JPN      Asia      Japan    2020-01-06          NA
#>  5 JPN      Asia      Japan    2020-01-07          NA
#>  6 JPN      Asia      Japan    2020-01-08          NA
#>  7 JPN      Asia      Japan    2020-01-09          NA
#>  8 JPN      Asia      Japan    2020-01-10          NA
#>  9 JPN      Asia      Japan    2020-01-11          NA
#> 10 JPN      Asia      Japan    2020-01-12          NA
#> # ℹ 1,211 more rows
#> # ℹ 62 more variables: new_cases <dbl>,
#> #   new_cases_smoothed <dbl>, total_deaths <dbl>,
#> #   new_deaths <dbl>, new_deaths_smoothed <dbl>,
#> #   total_cases_per_million <dbl>,
#> #   new_cases_per_million <dbl>,
#> #   new_cases_smoothed_per_million <dbl>, …
```
…
Let’s use the human rights protection dataset.


```r
rights <- owid("human-rights-protection")
rights
#> # A tibble: 11,273 × 4
#>    entity      code   year `Human rights protection`
#>  * <chr>       <chr> <int>                     <dbl>
#>  1 Afghanistan AFG    1946                     0.829
#>  2 Afghanistan AFG    1947                     0.878
#>  3 Afghanistan AFG    1948                     0.935
#>  4 Afghanistan AFG    1949                     0.966
#>  5 Afghanistan AFG    1950                     1.01 
#>  6 Afghanistan AFG    1951                     1.09 
#>  7 Afghanistan AFG    1952                     1.13 
#>  8 Afghanistan AFG    1953                     1.18 
#>  9 Afghanistan AFG    1954                     1.22 
#> 10 Afghanistan AFG    1955                     1.22 
#> # ℹ 11,263 more rows
```
…
```r
internet <- owid("share-of-individuals-using-the-internet", rename = "internet_use")
internet
#> # A tibble: 6,660 × 4
#>    entity      code   year internet_use
#>  * <chr>       <chr> <int>        <dbl>
#>  1 Afghanistan AFG    1990      0      
#>  2 Afghanistan AFG    1991      0      
#>  3 Afghanistan AFG    1992      0      
#>  4 Afghanistan AFG    1993      0      
#>  5 Afghanistan AFG    1994      0      
#>  6 Afghanistan AFG    1995      0      
#>  7 Afghanistan AFG    2001      0.00472
#>  8 Afghanistan AFG    2002      0.00456
#>  9 Afghanistan AFG    2003      0.0879 
#> 10 Afghanistan AFG    2004      0.106  
#> # ℹ 6,650 more rows
```
…
<img src="32-owid_files/figure-html/unnamed-chunk-34-1.png" width="672" />

### Democracy - modified from vignette


```r
owid_search("democrac") %>% as_tibble()
#> # A tibble: 91 × 2
#>    titles                                           chart_id
#>    <chr>                                            <chr>   
#>  1 Child mortality rate vs. electoral democracy     child-m…
#>  2 People living in democracies and non-democracies world-p…
#>  3 Age of democracy                                 age-of-…
#>  4 Age of democracy                                 age-of-…
#>  5 Age of democracy                                 age-of-…
#>  6 Age of electoral democracy                       age-of-…
#>  7 Age of electoral democracy                       age-of-…
#>  8 Age of liberal democracy                         age-of-…
#>  9 Citizen satisfaction with democracy              citizen…
#> 10 Citizen support for democracy                    citizen…
#> # ℹ 81 more rows
```
…
```r
democracy <- owid("electoral-democracy", rename = c("electoral_democracy", "vdem_high", "vdem_low"))
democracy
#> # A tibble: 32,518 × 6
#>    entity code   year electoral_democracy vdem_high vdem_low
#>  * <chr>  <chr> <int>               <dbl>     <dbl>    <dbl>
#>  1 Afgha… AFG    1789               0.019     0.024     0.01
#>  2 Afgha… AFG    1790               0.019     0.024     0.01
#>  3 Afgha… AFG    1791               0.019     0.024     0.01
#>  4 Afgha… AFG    1792               0.019     0.024     0.01
#>  5 Afgha… AFG    1793               0.019     0.024     0.01
#>  6 Afgha… AFG    1794               0.019     0.024     0.01
#>  7 Afgha… AFG    1795               0.019     0.024     0.01
#>  8 Afgha… AFG    1796               0.019     0.024     0.01
#>  9 Afgha… AFG    1797               0.019     0.024     0.01
#> 10 Afgha… AFG    1798               0.019     0.024     0.01
#> # ℹ 32,508 more rows
```
…
