…
```r
public <- wwealg %>% select(country, year, public = value)
public
#> # A tibble: 8,783 × 3
#>    country  year public
#>    <chr>   <dbl>  <dbl>
#>  1 AD       1995 0.0765
#>  2 AD       1996 0.0973
#>  3 AD       1997 0.118 
#>  4 AD       1998 0.138 
#>  5 AD       1999 0.159 
#>  6 AD       2000 0.182 
#>  7 AD       2001 0.207 
#>  8 AD       2002 0.234 
#>  9 AD       2003 0.263 
#> 10 AD       2004 0.294 
#> # … with 8,773 more rows
```


```r
private <- wwealp %>% select(country, year, private = value)
private
#> # A tibble: 8,989 × 3
#>    country  year private
#>    <chr>   <dbl>   <dbl>
#>  1 AD       1995   0.441
#>  2 AD       1996   0.488
#>  3 AD       1997   0.534
#>  4 AD       1998   0.582
#>  5 AD       1999   0.628
#>  6 AD       2000   0.678
#>  7 AD       2001   0.727
#>  8 AD       2002   0.778
#>  9 AD       2003   0.834
#> 10 AD       2004   0.894
#> # … with 8,979 more rows
```


```r
public_vs_private <- public %>% left_join(private)
#> Joining, by = c("country", "year")
public_vs_private
#> # A tibble: 8,783 × 4
#>    country  year public private
#>    <chr>   <dbl>  <dbl>   <dbl>
#>  1 AD       1995 0.0765   0.441
#>  2 AD       1996 0.0973   0.488
#>  3 AD       1997 0.118    0.534
#>  4 AD       1998 0.138    0.582
#>  5 AD       1999 0.159    0.628
#>  6 AD       2000 0.182    0.678
#>  7 AD       2001 0.207    0.727
#>  8 AD       2002 0.234    0.778
#>  9 AD       2003 0.263    0.834
#> 10 AD       2004 0.294    0.894
#> # … with 8,773 more rows
```

We use `wdi_cache` created by `wdi_cache = WDI::wdi_cache()`.


```r
wdi_cache <- read_rds("./data/wdi_cache.RData")
```



```r
df_pub_priv <- public_vs_private %>% pivot_longer(cols = c(3,4), names_to = "category", values_to = "value") %>% left_join(wdi_cache$country, by = c("country"="iso2c")) %>%
  select(country = country.y, iso2c = country, year, category, value, region, income, lending)
df_pub_priv
#> # A tibble: 17,566 × 8
#>    country iso2c  year category  value region income lending
#>    <chr>   <chr> <dbl> <chr>     <dbl> <chr>  <chr>  <chr>  
#>  1 Andorra AD     1995 public   0.0765 Europ… High … Not cl…
#>  2 Andorra AD     1995 private  0.441  Europ… High … Not cl…
#>  3 Andorra AD     1996 public   0.0973 Europ… High … Not cl…
#>  4 Andorra AD     1996 private  0.488  Europ… High … Not cl…
#>  5 Andorra AD     1997 public   0.118  Europ… High … Not cl…
#>  6 Andorra AD     1997 private  0.534  Europ… High … Not cl…
#>  7 Andorra AD     1998 public   0.138  Europ… High … Not cl…
#>  8 Andorra AD     1998 private  0.582  Europ… High … Not cl…
#>  9 Andorra AD     1999 public   0.159  Europ… High … Not cl…
#> 10 Andorra AD     1999 private  0.628  Europ… High … Not cl…
#> # … with 17,556 more rows
```
…
