…
```r
covid %>% drop_na(total_deaths_per_million) %>%
  group_by(location) %>% 
  summarize(total_deaths_per_million = max(total_deaths_per_million), .groups = "drop") %>%
  arrange(desc(total_deaths_per_million)) %>%
  ggplot(aes(x = total_deaths_per_million)) + geom_histogram(bins = 30)
```

<img src="42-covid19_files/figure-html/unnamed-chunk-6-1.png" width="672" />


```r
covid %>% filter(location == "Japan") %>% arrange(desc(date))
#> # A tibble: 1,115 × 67
#>    iso_code continent location date       total_ca…¹ new_c…²
#>    <chr>    <chr>     <chr>    <date>          <dbl>   <dbl>
#>  1 JPN      Asia      Japan    2023-02-09   32901767   32969
#>  2 JPN      Asia      Japan    2023-02-08   32868798   41584
#>  3 JPN      Asia      Japan    2023-02-07   32827214   44755
#>  4 JPN      Asia      Japan    2023-02-06   32782459   15612
#>  5 JPN      Asia      Japan    2023-02-05   32766847   32459
#>  6 JPN      Asia      Japan    2023-02-04   32734388   38581
#>  7 JPN      Asia      Japan    2023-02-03   32695807   39924
#>  8 JPN      Asia      Japan    2023-02-02   32655883   45299
#>  9 JPN      Asia      Japan    2023-02-01   32610584   55537
#> 10 JPN      Asia      Japan    2023-01-31   32555047   47118
#> # … with 1,105 more rows, 61 more variables:
#> #   new_cases_smoothed <dbl>, total_deaths <dbl>,
#> #   new_deaths <dbl>, new_deaths_smoothed <dbl>,
#> #   total_cases_per_million <dbl>,
#> #   new_cases_per_million <dbl>,
#> #   new_cases_smoothed_per_million <dbl>,
#> #   total_deaths_per_million <dbl>, …
```
…
