…
```r
ne_world_admin1 %>% as_tibble() %>% 
  filter(iso_a2 != "-1") %>% arrange(admin) %>%
  distinct(iso_a2, admin)
#> # A tibble: 243 × 2
#>    iso_a2 admin              
#>    <chr>  <chr>              
#>  1 AF     Afghanistan        
#>  2 AX     Aland              
#>  3 AL     Albania            
#>  4 DZ     Algeria            
#>  5 AS     American Samoa     
#>  6 AD     Andorra            
#>  7 AO     Angola             
#>  8 AI     Anguilla           
#>  9 AQ     Antarctica         
#> 10 AG     Antigua and Barbuda
#> # ℹ 233 more rows
```
…
