Chapter 9 Assignment Three | Data Analysis for Researchers AY2022
…
The shortest form. The following is same as:
WDI(country = "all", indicator = "NY.GDP.PCAP.KD", start = 1960, end = NULL, extra = FALSE, cache = NULL, latest = NULL, language = "en)

WDI(indicator = "NY.GDP.PCAP.KD")

#> Rows: 16492 Columns: 5
#> ── Column specification ────────────────────────────────────
#> Delimiter: ","
#> chr (3): country, iso2c, iso3c
#> dbl (2): year, NY.GDP.PCAP.KD
#> 
#> ℹ Use `spec()` to retrieve the full column specification for this data.
#> ℹ Specify the column types or set `show_col_types = FALSE` to quiet this message.
#> # A tibble: 16,492 × 5
#>    country                     iso2c iso3c  year NY.GDP.PC…¹
#>    <chr>                       <chr> <chr> <dbl>       <dbl>
#>  1 Africa Eastern and Southern ZH    AFE    2021       1461.
#>  2 Africa Eastern and Southern ZH    AFE    2020       1437.
#>  3 Africa Eastern and Southern ZH    AFE    2019       1520.
#>  4 Africa Eastern and Southern ZH    AFE    2018       1529.
#>  5 Africa Eastern and Southern ZH    AFE    2017       1532.
#>  6 Africa Eastern and Southern ZH    AFE    2016       1533.
#>  7 Africa Eastern and Southern ZH    AFE    2015       1541.
#>  8 Africa Eastern and Southern ZH    AFE    2014       1538.
#>  9 Africa Eastern and Southern ZH    AFE    2013       1520.
#> 10 Africa Eastern and Southern ZH    AFE    2012       1499.
#> # … with 16,482 more rows, and abbreviated variable name
#> #   ¹​NY.GDP.PCAP.KD

In order to use the downloaded data, we need to assign a name to it. It can be df if you download and use only one data, but it is better to assign the data to be a more descriptive name.

df_gdppcap <- WDI(indicator = "NY.GDP.PCAP.KD")
df_gdppcap

#> Rows: 16492 Columns: 5
#> ── Column specification ────────────────────────────────────
#> Delimiter: ","
#> chr (3): country, iso2c, iso3c
#> dbl (2): year, NY.GDP.PCAP.KD
#> 
#> ℹ Use `spec()` to retrieve the full column specification for this data.
#> ℹ Specify the column types or set `show_col_types = FALSE` to quiet this message.
#> # A tibble: 16,492 × 5
#>    country                     iso2c iso3c  year NY.GDP.PC…¹
#>    <chr>                       <chr> <chr> <dbl>       <dbl>
#>  1 Africa Eastern and Southern ZH    AFE    2021       1461.
#>  2 Africa Eastern and Southern ZH    AFE    2020       1437.
#>  3 Africa Eastern and Southern ZH    AFE    2019       1520.
#>  4 Africa Eastern and Southern ZH    AFE    2018       1529.
#>  5 Africa Eastern and Southern ZH    AFE    2017       1532.
#>  6 Africa Eastern and Southern ZH    AFE    2016       1533.
#>  7 Africa Eastern and Southern ZH    AFE    2015       1541.
#>  8 Africa Eastern and Southern ZH    AFE    2014       1538.
#>  9 Africa Eastern and Southern ZH    AFE    2013       1520.
#> 10 Africa Eastern and Southern ZH    AFE    2012       1499.
#> # … with 16,482 more rows, and abbreviated variable name
#> #   ¹​NY.GDP.PCAP.KD
…
df_gdppcap_extra <- WDI(indicator = "NY.GDP.PCAP.KD", extra = TRUE)
df_gdppcap_extra

#> Rows: 16492 Columns: 13
#> ── Column specification ────────────────────────────────────
#> Delimiter: ","
#> chr  (7): country, iso2c, iso3c, region, capital, income...
#> dbl  (4): year, NY.GDP.PCAP.KD, longitude, latitude
#> lgl  (1): status
#> date (1): lastupdated
#> 
#> ℹ Use `spec()` to retrieve the full column specification for this data.
#> ℹ Specify the column types or set `show_col_types = FALSE` to quiet this message.
#> # A tibble: 16,492 × 13
#>    country     iso2c iso3c  year NY.GDP.…¹ status lastupda…²
#>    <chr>       <chr> <chr> <dbl>     <dbl> <lgl>  <date>    
#>  1 Afghanistan AF    AFG    2015      592. NA     2022-12-22
#>  2 Afghanistan AF    AFG    2011      551. NA     2022-12-22
#>  3 Afghanistan AF    AFG    2014      603. NA     2022-12-22
#>  4 Afghanistan AF    AFG    2013      608. NA     2022-12-22
#>  5 Afghanistan AF    AFG    2012      596. NA     2022-12-22
#>  6 Afghanistan AF    AFG    2007      429. NA     2022-12-22
#>  7 Afghanistan AF    AFG    2010      569. NA     2022-12-22
#>  8 Afghanistan AF    AFG    2009      512. NA     2022-12-22
#>  9 Afghanistan AF    AFG    2008      437. NA     2022-12-22
#> 10 Afghanistan AF    AFG    2003      363. NA     2022-12-22
#> # … with 16,482 more rows, 6 more variables: region <chr>,
#> #   capital <chr>, longitude <dbl>, latitude <dbl>,
#> #   income <chr>, lending <chr>, and abbreviated variable
#> #   names ¹​NY.GDP.PCAP.KD, ²​lastupdated
…
If you want to import data for several countries, you can use iso2c codes of the countries.

ASEAN <- c("BN", "ID", "KH", "LA", "MM", "MY", "PH", "SG")

df_gdppcap_asean <- WDI(ASEAN, "NY.GDP.PCAP.KD")

#> Rows: 496 Columns: 5
#> ── Column specification ────────────────────────────────────
#> Delimiter: ","
#> chr (3): country, iso2c, iso3c
#> dbl (2): year, NY.GDP.PCAP.KD
#> 
#> ℹ Use `spec()` to retrieve the full column specification for this data.
#> ℹ Specify the column types or set `show_col_types = FALSE` to quiet this message.
#> # A tibble: 496 × 5
#>    country           iso2c iso3c  year NY.GDP.PCAP.KD
#>    <chr>             <chr> <chr> <dbl>          <dbl>
#>  1 Brunei Darussalam BN    BRN    2021         29673.
#>  2 Brunei Darussalam BN    BRN    2020         30402.
#>  3 Brunei Darussalam BN    BRN    2019         30314.
#>  4 Brunei Darussalam BN    BRN    2018         29438.
#>  5 Brunei Darussalam BN    BRN    2017         29696.
#>  6 Brunei Darussalam BN    BRN    2016         29601.
#>  7 Brunei Darussalam BN    BRN    2015         30682.
#>  8 Brunei Darussalam BN    BRN    2014         31156.
#>  9 Brunei Darussalam BN    BRN    2013         32342.
#> 10 Brunei Darussalam BN    BRN    2012         33457.
#> # … with 486 more rows
…
