Chapter 12 Assignment Four | Data Analysis for Researchers AY2022
…
12.4 Responses to Questions

12.4.1 Q. WIR2022, F8 with a fixed year, say 2020 describing the difference of goevernment and private income.

As for WIR2022, please refer to: https://ds-sl.github.io/data-analysis/wir2022.nb.html

I added explanations to each chart.

Step 1. Import the data

There is a step-by-step explanation of how to recreate a chart.

df_f8 <- read_excel("./data/WIR2022s.xlsx", sheet = "data-F8")
df_f8
#> # A tibble: 51 × 17
#>     year Germany German…¹ Spain Spain…² France Franc…³    UK
#>    <dbl>   <dbl>    <dbl> <dbl>   <dbl>  <dbl>   <dbl> <dbl>
#>  1  1970   1.11      2.30 0.604    4.06  0.422    3.12 0.601
#>  2  1971   1.12      2.25 0.657    4.53  0.443    3.06 0.689
#>  3  1972   1.11      2.27 0.624    4.36  0.467    3.08 0.790
#>  4  1973   1.11      2.23 0.596    4.46  0.478    3.06 0.929
#>  5  1974   1.13      2.25 0.586    4.64  0.498    3.03 1.09 
#>  6  1975   1.12      2.35 0.602    4.83  0.545    3.12 1.00 
#>  7  1976   1.03      2.34 0.581    4.46  0.561    3.08 0.918
#>  8  1977   1.01      2.42 0.586    4.10  0.567    3.10 0.867
#>  9  1978   0.990     2.52 0.604    4.10  0.580    3.20 0.881
#> 10  1979   0.989     2.55 0.621    4.20  0.624    3.30 0.955
#> # … with 41 more rows, 9 more variables:
#> #   `UK (private)` <dbl>, Japan <dbl>,
#> #   `Japan (private)` <dbl>, Norway <dbl>,
#> #   `Norway (private)` <dbl>, USA <dbl>,
#> #   `USA (private)` <dbl>, gwealAVGRICH <dbl>,
#> #   pwealAVGRICH <dbl>, and abbreviated variable names
#> #   ¹​`Germany (private)`, ²​`Spain (private)`, …
…
We can see that the Year is from 2000 to 2021. The first variable, Region/Country/Area and the fifth variable, Value are dbl, i.e., double; hence, these are numerical variables, and you can see them from the summary as well. But it is not easy to see other variables. Let us try them one by one.

un_edu %>% distinct(...2)
#> # A tibble: 224 × 1
#>    ...2                         
#>    <chr>                        
#>  1 Total, all countries or areas
#>  2 Northern Africa              
#>  3 Sub-Saharan Africa           
#>  4 Northern America             
#>  5 Latin America & the Caribbean
#>  6 Central Asia                 
#>  7 Eastern Asia                 
#>  8 South-eastern Asia           
#>  9 Southern Asia                
#> 10 Western Asia                 
#> # ℹ 214 more rows
…
un_edu %>% distinct(Source)
#> # A tibble: 1 × 1
#>   Source                                                    
#>   <chr>                                                     
#> 1 United Nations Educational, Scientific and Cultural Organ…

We may need to handle Footnotes carefully later, but for the first exploration, we need, …2 for Region, Year, Series, Values.

df_un_edu <- un_edu %>%
  select(Region = ...2, Year, Series, Value)
df_un_edu
#> # A tibble: 7,282 × 4
#>    Region                         Year Series          Value
#>    <chr>                         <dbl> <chr>           <dbl>
#>  1 Total, all countries or areas  2005 Students enro… 6.79e5
#>  2 Total, all countries or areas  2005 Gross enrollm… 1.05e2
#>  3 Total, all countries or areas  2005 Gross enrollm… 9.97e1
#>  4 Total, all countries or areas  2005 Students enro… 5.09e5
#>  5 Total, all countries or areas  2005 Gross enrollm… 6.58e1
#>  6 Total, all countries or areas  2005 Gross enrollm… 6.23e1
#>  7 Total, all countries or areas  2005 Students enro… 2.00e5
#>  8 Total, all countries or areas  2005 Gross enrollm… 5.12e1
#>  9 Total, all countries or areas  2005 Gross enrollm… 4.83e1
#> 10 Total, all countries or areas  2010 Students enro… 6.97e5
#> # ℹ 7,272 more rows

Is there a way to separate regions from countries?

df_un_edu %>% left_join(wdi_cache$country, by = c("Region"="country")) %>%
  filter(!is.na(iso2c)) %>% distinct(Region)
#> # A tibble: 176 × 1
#>    Region             
#>    <chr>              
#>  1 Afghanistan        
#>  2 Albania            
#>  3 Algeria            
#>  4 Andorra            
#>  5 Angola             
#>  6 Antigua and Barbuda
#>  7 Argentina          
#>  8 Armenia            
#>  9 Aruba              
#> 10 Australia          
#> # ℹ 166 more rows

df_un_edu %>% left_join(wdi_cache$country, by = c("Region"="country")) %>%
  filter(is.na(iso2c)) %>% distinct(Region)
#> # A tibble: 48 × 1
#>    Region                       
#>    <chr>                        
#>  1 Total, all countries or areas
#>  2 Northern Africa              
#>  3 Sub-Saharan Africa           
#>  4 Northern America             
#>  5 Latin America & the Caribbean
#>  6 Central Asia                 
#>  7 Eastern Asia                 
#>  8 South-eastern Asia           
#>  9 Southern Asia                
#> 10 Western Asia                 
#> # ℹ 38 more rows
…
df_un_pop %>% distinct(Source)
#> # A tibble: 4 × 1
#>   Source                                                    
#>   <chr>                                                     
#> 1 "United Nations Population Division, New York, World Popu…
#> 2 "United Nations Population Division, New York, World Popu…
#> 3 "United Nations Statistics Division, New York, \"Demograp…
#> 4 "World Health Organization (WHO), the United Nations Chil…

df_un_pop %>% distinct(Footnotes)
#> # A tibble: 82 × 1
#>    Footnotes                                                
#>    <chr>                                                    
#>  1 <NA>                                                     
#>  2 Projected estimate (medium fertility variant).           
#>  3 Including Saint Helena.                                  
#>  4 Projected estimate (medium fertility variant).;Including…
#>  5 Including Bermuda, Greenland, and Saint Pierre and Mique…
#>  6 Projected estimate (medium fertility variant).;Including…
#>  7 Including Anguilla, Bonaire, Sint Eustatius and Saba, Br…
#>  8 Projected estimate (medium fertility variant).;Including…
#>  9 Including Falkland Islands (Malvinas).                   
#> 10 Projected estimate (medium fertility variant).;Including…
#> # ℹ 72 more rows

df_un_pop %>% distinct(X)
#> # A tibble: 264 × 1
#>    X                            
#>    <chr>                        
#>  1 Total, all countries or areas
#>  2 Africa                       
#>  3 Northern Africa              
#>  4 Sub-Saharan Africa           
#>  5 Eastern Africa               
#>  6 Middle Africa                
#>  7 Southern Africa              
#>  8 Western Africa               
#>  9 Northern America             
#> 10 Latin America & the Caribbean
#> # ℹ 254 more rows
…
un_pop <- df_un_pop %>% select(Region = X, Year, Series, Value)
un_pop
#> # A tibble: 6,654 × 4
#>    Region                         Year Series          Value
#>    <chr>                         <dbl> <chr>           <dbl>
#>  1 Total, all countries or areas  2010 Population ann…   1.3
#>  2 Total, all countries or areas  2010 Total fertilit…   2.6
#>  3 Total, all countries or areas  2010 Infant mortali…  37.1
#>  4 Total, all countries or areas  2010 Maternal morta… 253  
#>  5 Total, all countries or areas  2010 Life expectanc…  70.1
#>  6 Total, all countries or areas  2010 Life expectanc…  67.6
#>  7 Total, all countries or areas  2010 Life expectanc…  72.7
#>  8 Total, all countries or areas  2015 Population ann…   1.2
#>  9 Total, all countries or areas  2015 Total fertilit…   2.5
#> 10 Total, all countries or areas  2015 Infant mortali…  31.5
#> # ℹ 6,644 more rows

Let us change the names of series.

un_pop_wide <- un_pop %>% pivot_wider(names_from = Series, values_from = Value)
colnames(un_pop_wide) <- c("Region", "Year", "IncRate", "Fert", "InfDeath", "MatDeath", "LifeExp", "LifeExpM", "LifeExpF")
un_pop_wide
#> # A tibble: 1,005 × 9
#>    Region       Year IncRate  Fert InfDeath MatDeath LifeExp
#>    <chr>       <dbl>   <dbl> <dbl>    <dbl>    <dbl>   <dbl>
#>  1 Total, all…  2010     1.3   2.6     37.1      253    70.1
#>  2 Total, all…  2015     1.2   2.5     31.5      225    71.8
#>  3 Total, all…  2017     1.1   2.5     29.6      218    72.3
#>  4 Total, all…  2022     0.8   2.3     27.5       NA    71.7
#>  5 Africa       2010     2.6   4.9     60.9       NA    58.6
#>  6 Africa       2015     2.6   4.6     52.5       NA    61.1
#>  7 Africa       2022     2.3   4.2     44.2       NA    62.2
#>  8 Northern A…  2010     1.9   3.2     29.5      148    69.6
#>  9 Northern A…  2015     2.1   3.4     25.3      120    70.9
#> 10 Northern A…  2017     2     3.2     24.2      115    71.5
#> # ℹ 995 more rows
#> # ℹ 2 more variables: LifeExpM <dbl>, LifeExpF <dbl>

un_pop_long <- un_pop_wide %>% pivot_longer(cols = -c(1,2), names_to = "Series", values_to = "Value")
un_pop_long                                           
#> # A tibble: 7,035 × 4
#>    Region                         Year Series   Value
#>    <chr>                         <dbl> <chr>    <dbl>
#>  1 Total, all countries or areas  2010 IncRate    1.3
#>  2 Total, all countries or areas  2010 Fert       2.6
#>  3 Total, all countries or areas  2010 InfDeath  37.1
#>  4 Total, all countries or areas  2010 MatDeath 253  
#>  5 Total, all countries or areas  2010 LifeExp   70.1
#>  6 Total, all countries or areas  2010 LifeExpM  67.6
#>  7 Total, all countries or areas  2010 LifeExpF  72.7
#>  8 Total, all countries or areas  2015 IncRate    1.2
#>  9 Total, all countries or areas  2015 Fert       2.5
#> 10 Total, all countries or areas  2015 InfDeath  31.5
#> # ℹ 7,025 more rows
…
public <- wwealg %>% select(country, year, public = value)
public
#> # A tibble: 8,783 × 3
#>    country  year public
#>    <chr>   <dbl>  <dbl>
#>  1 AD       1995 0.0765
#>  2 AD       1996 0.0973
#>  3 AD       1997 0.118 
#>  4 AD       1998 0.138 
#>  5 AD       1999 0.159 
#>  6 AD       2000 0.182 
#>  7 AD       2001 0.207 
#>  8 AD       2002 0.234 
#>  9 AD       2003 0.263 
#> 10 AD       2004 0.294 
#> # ℹ 8,773 more rows

private <- wwealp %>% select(country, year, private = value)
private
#> # A tibble: 8,989 × 3
#>    country  year private
#>    <chr>   <dbl>   <dbl>
#>  1 AD       1995   0.441
#>  2 AD       1996   0.488
#>  3 AD       1997   0.534
#>  4 AD       1998   0.582
#>  5 AD       1999   0.628
#>  6 AD       2000   0.678
#>  7 AD       2001   0.727
#>  8 AD       2002   0.778
#>  9 AD       2003   0.834
#> 10 AD       2004   0.894
#> # ℹ 8,979 more rows

public_vs_private <- public %>% left_join(private)
#> Joining with `by = join_by(country, year)`
public_vs_private
#> # A tibble: 8,783 × 4
#>    country  year public private
#>    <chr>   <dbl>  <dbl>   <dbl>
#>  1 AD       1995 0.0765   0.441
#>  2 AD       1996 0.0973   0.488
#>  3 AD       1997 0.118    0.534
#>  4 AD       1998 0.138    0.582
#>  5 AD       1999 0.159    0.628
#>  6 AD       2000 0.182    0.678
#>  7 AD       2001 0.207    0.727
#>  8 AD       2002 0.234    0.778
#>  9 AD       2003 0.263    0.834
#> 10 AD       2004 0.294    0.894
#> # ℹ 8,773 more rows

df_pub_priv <- public_vs_private %>% pivot_longer(cols = c(3,4), names_to = "category", values_to = "value") %>% left_join(wdi_cache$country, by = c("country"="iso2c")) %>%
  select(country = country.y, iso2c = country, year, category, value, region, income, lending)
df_pub_priv
#> # A tibble: 17,566 × 8
#>    country iso2c  year category  value region income lending
#>    <chr>   <chr> <dbl> <chr>     <dbl> <chr>  <chr>  <chr>  
#>  1 Andorra AD     1995 public   0.0765 Europ… High … Not cl…
#>  2 Andorra AD     1995 private  0.441  Europ… High … Not cl…
#>  3 Andorra AD     1996 public   0.0973 Europ… High … Not cl…
#>  4 Andorra AD     1996 private  0.488  Europ… High … Not cl…
#>  5 Andorra AD     1997 public   0.118  Europ… High … Not cl…
#>  6 Andorra AD     1997 private  0.534  Europ… High … Not cl…
#>  7 Andorra AD     1998 public   0.138  Europ… High … Not cl…
#>  8 Andorra AD     1998 private  0.582  Europ… High … Not cl…
#>  9 Andorra AD     1999 public   0.159  Europ… High … Not cl…
#> 10 Andorra AD     1999 private  0.628  Europ… High … Not cl…
#> # ℹ 17,556 more rows
…
