Chapter 5 dplyr | Data Analysis for Researchers AY2022
…
How many of these countries are on the list?

Choose several countries by yourself and do the similar investigations.

5.10.3 group_by and summarize

Let us use the variable continent and summarize the data. Can you tell how many continents are listed in the data? Yes, there are five. Can you tell how many countries are in each continent on the data?

df_lifeExp <- df %>% group_by(continent, year) %>% 
  summarize(mean_lifeExp = mean(lifeExp), median_lifeExp = median(lifeExp), max_lifeExp = max(lifeExp), min_lifeExp = min(lifeExp), .groups = "keep")

Don’t get scared. We will learn little by little.

df_lifeExp %>% slice(1:10)
#> # A tibble: 60 × 6
#> # Groups:   continent, year [60]
#>    continent  year mean_lifeExp median_lif…¹ max_l…² min_l…³
#>    <fct>     <int>        <dbl>        <dbl>   <dbl>   <dbl>
#>  1 Africa     1952         39.1         38.8    52.7    30  
#>  2 Africa     1957         41.3         40.6    58.1    31.6
#>  3 Africa     1962         43.3         42.6    60.2    32.8
#>  4 Africa     1967         45.3         44.7    61.6    34.1
#>  5 Africa     1972         47.5         47.0    64.3    35.4
#>  6 Africa     1977         49.6         49.3    67.1    36.8
#>  7 Africa     1982         51.6         50.8    69.9    38.4
#>  8 Africa     1987         53.3         51.6    71.9    39.9
#>  9 Africa     1992         53.6         52.4    73.6    23.6
#> 10 Africa     1997         53.6         52.8    74.8    36.1
#> # … with 50 more rows, and abbreviated variable names
#> #   ¹​median_lifeExp, ²​max_lifeExp, ³​min_lifeExp
…
#> Rows: 16492 Columns: 15
#> ── Column specification ────────────────────────────────────
#> Delimiter: ","
#> chr  (7): country, iso2c, iso3c, region, capital, income...
#> dbl  (6): year, lifeExp, pop, gdpPercap, longitude, lati...
#> lgl  (1): status
#> date (1): lastupdated
#> 
#> ℹ Use `spec()` to retrieve the full column specification for this data.
#> ℹ Specify the column types or set `show_col_types = FALSE` to quiet this message.

df_wdi_extra
#> # A tibble: 16,492 × 15
#>    country     iso2c iso3c  year status lastupdated lifeExp
#>    <chr>       <chr> <chr> <dbl> <lgl>  <date>        <dbl>
#>  1 Afghanistan AF    AFG    1993 NA     2022-12-22     51.5
#>  2 Afghanistan AF    AFG    1997 NA     2022-12-22     53.6
#>  3 Afghanistan AF    AFG    1994 NA     2022-12-22     51.5
#>  4 Afghanistan AF    AFG    1995 NA     2022-12-22     52.5
#>  5 Afghanistan AF    AFG    2001 NA     2022-12-22     55.8
#>  6 Afghanistan AF    AFG    1998 NA     2022-12-22     52.9
#>  7 Afghanistan AF    AFG    1999 NA     2022-12-22     54.8
#>  8 Afghanistan AF    AFG    2007 NA     2022-12-22     59.1
#>  9 Afghanistan AF    AFG    2008 NA     2022-12-22     59.9
#> 10 Afghanistan AF    AFG    1980 NA     2022-12-22     39.6
#> # … with 16,482 more rows, and 8 more variables: pop <dbl>,
#> #   gdpPercap <dbl>, region <chr>, capital <chr>,
#> #   longitude <dbl>, latitude <dbl>, income <chr>,
#> #   lending <chr>
…
