Chapter 9 General Comments | Data Analysis for Researchers AY2022
…
uptake: a numeric vector of carbon dioxide uptake rates (/m^2μmol/m 2
sec).

Details: The CO_2 uptake of six plants from Quebec and six plants from Mississippi was measured at several levels of ambient CO_2 concentration. Half the plants of each type were chilled overnight before the experiment was conducted.

This dataset was originally part of package nlme, and that has methods (including for [, as.data.frame, plot and print) for its grouped-data classes.

Source: Potvin, C., Lechowicz, M. J. and Tardif, S. (1990) “The statistical analysis of ecophysiological response curves obtained from experiments involving repeated measures”, Ecology, 71, 1389–1400.

Pinheiro, J. C. and Bates, D. M. (2000) Mixed-effects Models in S and S-PLUS, Springer.

df_co2 <- as_tibble(datasets::CO2) # what happens if simply `df_co2 <- datasets::CO2`
df_co2
#> # A tibble: 84 × 5
#>    Plant Type   Treatment   conc uptake
#>    <ord> <fct>  <fct>      <dbl>  <dbl>
#>  1 Qn1   Quebec nonchilled    95   16  
#>  2 Qn1   Quebec nonchilled   175   30.4
#>  3 Qn1   Quebec nonchilled   250   34.8
#>  4 Qn1   Quebec nonchilled   350   37.2
#>  5 Qn1   Quebec nonchilled   500   35.3
#>  6 Qn1   Quebec nonchilled   675   39.2
#>  7 Qn1   Quebec nonchilled  1000   39.7
#>  8 Qn2   Quebec nonchilled    95   13.6
#>  9 Qn2   Quebec nonchilled   175   27.3
#> 10 Qn2   Quebec nonchilled   250   37.1
#> # … with 74 more rows
…
df_sb <- as_tibble(datasets::Seatbelts)
df_sb
#> # A tibble: 192 × 8
#>    Drivers…¹ drivers front  rear   kms Petro…² VanKi…³   law
#>        <dbl>   <dbl> <dbl> <dbl> <dbl>   <dbl>   <dbl> <dbl>
#>  1       107    1687   867   269  9059   0.103      12     0
#>  2        97    1508   825   265  7685   0.102       6     0
#>  3       102    1507   806   319  9963   0.102      12     0
#>  4        87    1385   814   407 10955   0.101       8     0
#>  5       119    1632   991   454 11823   0.101      10     0
#>  6       106    1511   945   427 12391   0.101      13     0
#>  7       110    1559  1004   522 13460   0.104      11     0
#>  8       106    1630  1091   536 14055   0.104       6     0
#>  9       107    1579   958   405 12106   0.104      10     0
#> 10       134    1653   850   437 11372   0.103      16     0
#> # … with 182 more rows, and abbreviated variable names
#> #   ¹​DriversKilled, ²​PetrolPrice, ³​VanKilled
…
What can you see above?

We will learn how to use pivot_longer and pivot_wider in EDA4.

df_sb %>% 
  pivot_longer(cols = 2:4, names_to = "seat", values_to = "value")
#> # A tibble: 576 × 7
#>    DriversKilled   kms PetrolPrice VanKi…¹   law seat  value
#>            <dbl> <dbl>       <dbl>   <dbl> <dbl> <chr> <dbl>
#>  1           107  9059       0.103      12     0 driv…  1687
#>  2           107  9059       0.103      12     0 front   867
#>  3           107  9059       0.103      12     0 rear    269
#>  4            97  7685       0.102       6     0 driv…  1508
#>  5            97  7685       0.102       6     0 front   825
#>  6            97  7685       0.102       6     0 rear    265
#>  7           102  9963       0.102      12     0 driv…  1507
#>  8           102  9963       0.102      12     0 front   806
#>  9           102  9963       0.102      12     0 rear    319
#> 10            87 10955       0.101       8     0 driv…  1385
#> # … with 566 more rows, and abbreviated variable name
#> #   ¹​VanKilled
…
