A HistData | Data Analysis for Researchers AY2022
…
First, focus on the rates by cause

Month, Year columns are redundant and use Date

When rates are considered, Army, Disease, Wounds and Other columns are unnecessary.

We use a long table to apply ggplot2 to visualise data.

dat %>% pivot_longer(cols = "columns kept as a vector", names_to = "variable", values_to = "date")

df_fn <- Nightingale %>%
  select(Date, "Disease_Rate" = Disease.rate, "Wounds_Rate" = Wounds.rate, "Other_Rate" = Other.rate) %>%
  pivot_longer(cols = Disease_Rate:Other_Rate, names_to = "Cause", values_to = "Deaths")
df_fn
#> # A tibble: 72 × 3
#>    Date       Cause        Deaths
#>    <date>     <chr>         <dbl>
#>  1 1854-04-01 Disease_Rate    1.4
#>  2 1854-04-01 Wounds_Rate     0  
#>  3 1854-04-01 Other_Rate      7  
#>  4 1854-05-01 Disease_Rate    6.2
#>  5 1854-05-01 Wounds_Rate     0  
#>  6 1854-05-01 Other_Rate      4.6
#>  7 1854-06-01 Disease_Rate    4.7
#>  8 1854-06-01 Wounds_Rate     0  
#>  9 1854-06-01 Other_Rate      2.5
#> 10 1854-07-01 Disease_Rate  150  
#> # … with 62 more rows
…
A.3 Galton’s Example

Galton’s data on the heights of parents and their children, by child

Description:
This data set lists the individual observations for 934 children in 205 families on which Galton (1886) based his cross-tabulation.

In addition to the question of the relation between heights of parents and their offspring, for which this data is mainly famous, Galton had another purpose which the data in this form allows to address: Does marriage selection indicate a relationship between the heights of husbands and wives, a topic he called assortative mating? Keen p. 297-298 provides a brief discussion of this topic.

See Help: GaltonFamilies

gf <- as_tibble(GaltonFamilies)
gf
#> # A tibble: 934 × 8
#>    family father mother midparentHe…¹ child…² child…³ gender
#>    <fct>   <dbl>  <dbl>         <dbl>   <int>   <int> <fct> 
#>  1 001      78.5   67            75.4       4       1 male  
#>  2 001      78.5   67            75.4       4       2 female
#>  3 001      78.5   67            75.4       4       3 female
#>  4 001      78.5   67            75.4       4       4 female
#>  5 002      75.5   66.5          73.7       4       1 male  
#>  6 002      75.5   66.5          73.7       4       2 male  
#>  7 002      75.5   66.5          73.7       4       3 female
#>  8 002      75.5   66.5          73.7       4       4 female
#>  9 003      75     64            72.1       2       1 male  
#> 10 003      75     64            72.1       2       2 female
#> # … with 924 more rows, 1 more variable: childHeight <dbl>,
#> #   and abbreviated variable names ¹​midparentHeight,
#> #   ²​children, ³​childNum
…
