Chapter 13 Linear Model | Data Analysis for Researchers AY2022
…
wdi_world <- WDI(country = "all", indicator = c(gdpPcap = "NY.GDP.PCAP.KD", lifeExp = "SP.DYN.LE00.IN", pop = "SP.POP.TOTL", research = "GB.XPD.RSDV.GD.ZS", military = "MS.MIL.XPND.GD.ZS", education = "SE.XPD.TOTL.GD.ZS"), 1990, extra = TRUE, cache = wdi_cache)

#> Rows: 8512 Columns: 18
#> ── Column specification ────────────────────────────────────
#> Delimiter: ","
#> chr  (7): country, iso2c, iso3c, region, capital, income...
#> dbl  (9): year, gdpPcap, lifeExp, pop, research, militar...
#> lgl  (1): status
#> date (1): lastupdated
#> 
#> ℹ Use `spec()` to retrieve the full column specification for this data.
#> ℹ Specify the column types or set `show_col_types = FALSE` to quiet this message.

wdi_world
#> # A tibble: 8,512 × 18
#>    country     iso2c iso3c  year status lastupdated gdpPcap
#>    <chr>       <chr> <chr> <dbl> <lgl>  <date>        <dbl>
#>  1 Afghanistan AF    AFG    2018 NA     2022-12-22     579.
#>  2 Afghanistan AF    AFG    2009 NA     2022-12-22     512.
#>  3 Afghanistan AF    AFG    2016 NA     2022-12-22     590.
#>  4 Afghanistan AF    AFG    2014 NA     2022-12-22     603.
#>  5 Afghanistan AF    AFG    2012 NA     2022-12-22     596.
#>  6 Afghanistan AF    AFG    2015 NA     2022-12-22     592.
#>  7 Afghanistan AF    AFG    1990 NA     2022-12-22      NA 
#>  8 Afghanistan AF    AFG    2019 NA     2022-12-22     584.
#>  9 Afghanistan AF    AFG    2002 NA     2022-12-22     360.
#> 10 Afghanistan AF    AFG    2017 NA     2022-12-22     589.
#> # … with 8,502 more rows, and 11 more variables:
#> #   lifeExp <dbl>, pop <dbl>, research <dbl>,
#> #   military <dbl>, education <dbl>, region <chr>,
#> #   capital <chr>, longitude <dbl>, latitude <dbl>,
#> #   income <chr>, lending <chr>
…
wdi_world_el %>% filter(year==2020) %>% arrange(desc(education))
#> # A tibble: 152 × 10
#>    country       year educa…¹ lifeExp gdpPcap    pop resea…²
#>    <chr>        <dbl>   <dbl>   <dbl>   <dbl>  <dbl>   <dbl>
#>  1 Solomon Isl…  2020   12.8     70.2   2080. 6.91e5  NA    
#>  2 Bolivia       2020    9.84    64.5   2920. 1.19e7  NA    
#>  3 Namibia       2020    9.45    62.8   4155. 2.49e6  NA    
#>  4 Sierra Leone  2020    8.81    59.8    604. 8.23e6  NA    
#>  5 Botswana      2020    8.74    65.6   5811. 2.55e6  NA    
#>  6 Saudi Arabia  2020    7.81    76.2  18086. 3.60e7   0.522
#>  7 Iceland       2020    7.72    83.1  52984. 3.66e5   2.47 
#>  8 Lesotho       2020    7.67    54.7    972. 2.25e6  NA    
#>  9 Cabo Verde    2020    7.58    74.8   2801. 5.83e5  NA    
#> 10 Belize        2020    7.53    72.9   5040. 3.95e5  NA    
#> # … with 142 more rows, 3 more variables: military <dbl>,
#> #   region <chr>, income <chr>, and abbreviated variable
#> #   names ¹​education, ²​research

wdi_world_el %>% filter(year==2020) %>% arrange(desc(education))
#> # A tibble: 152 × 10
#>    country       year educa…¹ lifeExp gdpPcap    pop resea…²
#>    <chr>        <dbl>   <dbl>   <dbl>   <dbl>  <dbl>   <dbl>
#>  1 Solomon Isl…  2020   12.8     70.2   2080. 6.91e5  NA    
#>  2 Bolivia       2020    9.84    64.5   2920. 1.19e7  NA    
#>  3 Namibia       2020    9.45    62.8   4155. 2.49e6  NA    
#>  4 Sierra Leone  2020    8.81    59.8    604. 8.23e6  NA    
#>  5 Botswana      2020    8.74    65.6   5811. 2.55e6  NA    
#>  6 Saudi Arabia  2020    7.81    76.2  18086. 3.60e7   0.522
#>  7 Iceland       2020    7.72    83.1  52984. 3.66e5   2.47 
#>  8 Lesotho       2020    7.67    54.7    972. 2.25e6  NA    
#>  9 Cabo Verde    2020    7.58    74.8   2801. 5.83e5  NA    
#> 10 Belize        2020    7.53    72.9   5040. 3.95e5  NA    
#> # … with 142 more rows, 3 more variables: military <dbl>,
#> #   region <chr>, income <chr>, and abbreviated variable
#> #   names ¹​education, ²​research
…
