Chapter 25 My Comments after Review | Data Analysis for Researchers AY2022
…
25.3.3 augment

The first column is the vector corresponding to y.

The second column is the vector corresponding to x.

.fitted is the y value of the fitted line. So
\[.fitted = y-intercept + slope \cdot x.\]

.resid is the residue, i.e., y-value minus .fitted (or predicted) value.

mod %>% augment() %>% arrange(Sepal.Width)
#> # A tibble: 150 × 8
#>    Sepal.Len…¹ Sepal…² .fitted  .resid   .hat .sigma .cooksd
#>          <dbl>   <dbl>   <dbl>   <dbl>  <dbl>  <dbl>   <dbl>
#>  1         5       2      6.08 -1.08   0.0462  0.823 4.34e-2
#>  2         6       2.2    6.03 -0.0348 0.0326  0.828 3.11e-5
#>  3         6.2     2.2    6.03  0.165  0.0326  0.828 6.99e-4
#>  4         6       2.2    6.03 -0.0348 0.0326  0.828 3.11e-5
#>  5         4.5     2.3    6.01 -1.51   0.0269  0.818 4.78e-2
#>  6         5.5     2.3    6.01 -0.512  0.0269  0.827 5.49e-3
#>  7         6.3     2.3    6.01  0.288  0.0269  0.828 1.73e-3
#>  8         5       2.3    6.01 -1.01   0.0269  0.824 2.14e-2
#>  9         4.9     2.4    5.99 -1.09   0.0219  0.823 2.00e-2
#> 10         5.5     2.4    5.99 -0.490  0.0219  0.827 4.05e-3
#> # … with 140 more rows, 1 more variable: .std.resid <dbl>,
#> #   and abbreviated variable names ¹​Sepal.Length,
#> #   ²​Sepal.Width
…
