Chapter 25 Our World in Data | Data Analysis for Researchers AY2022
…
A matrix is returned. If the list is long, it is easier to see the pairs of the titles and chart_ids by adding as_tibble().

owid_search("emissions") %>% as_tibble()
#> # A tibble: 151 × 2
#>    titles                                            chart…¹
#>    <chr>                                             <chr>  
#>  1 Air pollutant emissions                           air-po…
#>  2 Emissions of air pollutants                       emissi…
#>  3 Emissions of air pollutants                       emissi…
#>  4 Emissions of particulate matter                   emissi…
#>  5 Global SO₂ emissions                              global…
#>  6 Global sulphur dioxide (SO₂) emissions by world … so-emi…
#>  7 Sulphur dioxide (SO₂) emissions                   so2-em…
#>  8 Sulphur dioxide (SO₂) emissions                   so-emi…
#>  9 Sulphur dioxide (SO₂) emissions per capita        so-emi…
#> 10 Sulphur oxide (SO₂) emissions                     sulphu…
#> # … with 141 more rows, and abbreviated variable name
#> #   ¹​chart_id
…
Get a dataset used in an OWID chart

owid(chart_id = NULL, rename = NULL, tidy.date = TRUE, ...)

chard_id: The chart_id as returned by owid_search, which is combined with ‘-’. Don’t mix up with the chart titles.

rename: Rename the value column. Currently only works if their is just one value col- umn.

Example

emissions <- owid("per-capita-ghg-emissions")

emissions
#> # A tibble: 6,149 × 4
#>    entity      code   year `Total including LUCF`
#>  * <chr>       <chr> <int>                  <dbl>
#>  1 Afghanistan AFG    1990                  0.772
#>  2 Afghanistan AFG    1991                  0.738
#>  3 Afghanistan AFG    1992                  0.623
#>  4 Afghanistan AFG    1993                  0.576
#>  5 Afghanistan AFG    1994                  0.536
#>  6 Afghanistan AFG    1995                  0.529
#>  7 Afghanistan AFG    1996                  0.563
#>  8 Afghanistan AFG    1997                  0.598
#>  9 Afghanistan AFG    1998                  0.628
#> 10 Afghanistan AFG    1999                  0.658
#> # … with 6,139 more rows

rights <- owid("human-rights-scores")

rights
#> # A tibble: 11,273 × 4
#>    entity      code   year `Human rights protection`
#>  * <chr>       <chr> <int>                     <dbl>
#>  1 Afghanistan AFG    1946                     0.829
#>  2 Afghanistan AFG    1947                     0.878
#>  3 Afghanistan AFG    1948                     0.935
#>  4 Afghanistan AFG    1949                     0.966
#>  5 Afghanistan AFG    1950                     1.01 
#>  6 Afghanistan AFG    1951                     1.09 
#>  7 Afghanistan AFG    1952                     1.13 
#>  8 Afghanistan AFG    1953                     1.18 
#>  9 Afghanistan AFG    1954                     1.22 
#> 10 Afghanistan AFG    1955                     1.22 
#> # … with 11,263 more rows

Note.

You can use rename to change column names. For example,

owid("per-capita-ghg-emissions", rename = "ghgPcap")
#> # A tibble: 6,149 × 4
#>    entity      code   year ghgPcap
#>  * <chr>       <chr> <int>   <dbl>
#>  1 Afghanistan AFG    1990   0.772
#>  2 Afghanistan AFG    1991   0.738
#>  3 Afghanistan AFG    1992   0.623
#>  4 Afghanistan AFG    1993   0.576
#>  5 Afghanistan AFG    1994   0.536
#>  6 Afghanistan AFG    1995   0.529
#>  7 Afghanistan AFG    1996   0.563
#>  8 Afghanistan AFG    1997   0.598
#>  9 Afghanistan AFG    1998   0.628
#> 10 Afghanistan AFG    1999   0.658
#> # … with 6,139 more rows

Since until after importing the data, you never know the original column name, and how many columns are for indicators. It is natural to change column names using dpyr::rename. In the next example, I used Total including LUCF. However, ‘Total including LUCF’ and “Total including LUCF” work as well.

emissions %>% rename(ghgPcap = `Total including LUCF`)
#> # A tibble: 6,149 × 4
#>    entity      code   year ghgPcap
#>  * <chr>       <chr> <int>   <dbl>
#>  1 Afghanistan AFG    1990   0.772
#>  2 Afghanistan AFG    1991   0.738
#>  3 Afghanistan AFG    1992   0.623
#>  4 Afghanistan AFG    1993   0.576
#>  5 Afghanistan AFG    1994   0.536
#>  6 Afghanistan AFG    1995   0.529
#>  7 Afghanistan AFG    1996   0.563
#>  8 Afghanistan AFG    1997   0.598
#>  9 Afghanistan AFG    1998   0.628
#> 10 Afghanistan AFG    1999   0.658
#> # … with 6,139 more rows

If there are more than one variables to rename, use vector notation as follows. Here top_n(1) is same as slice(1), and gives the first row only.

owid("electoral-democracy") %>% top_n(1)
#> Selecting by electdem_vdem_low_owid
#> # A tibble: 1 × 6
#>   entity code   year `Electoral democracy` electde…¹ elect…²
#>   <chr>  <chr> <int>                 <dbl>     <dbl>   <dbl>
#> 1 Sweden SWE    2012                 0.926     0.958   0.905
#> # … with abbreviated variable names
#> #   ¹​electdem_vdem_high_owid, ²​electdem_vdem_low_owid

owid("electoral-democracy", rename = c("electoral_democracy", "vdem_high", "vdem_low"))
#> # A tibble: 31,995 × 6
#>    entity      code   year electoral_democ…¹ vdem_…² vdem_…³
#>  * <chr>       <chr> <int>             <dbl>   <dbl>   <dbl>
#>  1 Afghanistan AFG    1789             0.018   0.026   0.012
#>  2 Afghanistan AFG    1790             0.018   0.026   0.012
#>  3 Afghanistan AFG    1791             0.018   0.026   0.012
#>  4 Afghanistan AFG    1792             0.018   0.026   0.012
#>  5 Afghanistan AFG    1793             0.018   0.026   0.012
#>  6 Afghanistan AFG    1794             0.018   0.026   0.012
#>  7 Afghanistan AFG    1795             0.018   0.026   0.012
#>  8 Afghanistan AFG    1796             0.018   0.026   0.012
#>  9 Afghanistan AFG    1797             0.018   0.026   0.012
#> 10 Afghanistan AFG    1798             0.018   0.026   0.012
#> # … with 31,985 more rows, and abbreviated variable names
#> #   ¹​electoral_democracy, ²​vdem_high, ³​vdem_low

You can use dplyr::rename, and keep the record of renaming column names.

(democracy <- owid("electoral-democracy"))
#> # A tibble: 31,995 × 6
#>    entity      code   year Electoral democ…¹ elect…² elect…³
#>  * <chr>       <chr> <int>             <dbl>   <dbl>   <dbl>
#>  1 Afghanistan AFG    1789             0.018   0.026   0.012
#>  2 Afghanistan AFG    1790             0.018   0.026   0.012
#>  3 Afghanistan AFG    1791             0.018   0.026   0.012
#>  4 Afghanistan AFG    1792             0.018   0.026   0.012
#>  5 Afghanistan AFG    1793             0.018   0.026   0.012
#>  6 Afghanistan AFG    1794             0.018   0.026   0.012
#>  7 Afghanistan AFG    1795             0.018   0.026   0.012
#>  8 Afghanistan AFG    1796             0.018   0.026   0.012
#>  9 Afghanistan AFG    1797             0.018   0.026   0.012
#> 10 Afghanistan AFG    1798             0.018   0.026   0.012
#> # … with 31,985 more rows, and abbreviated variable names
#> #   ¹​`Electoral democracy`, ²​electdem_vdem_high_owid,
#> #   ³​electdem_vdem_low_owid

democracy <- democracy %>% 
  rename(`electoral_democracy` = `Electoral democracy`,  
         `vdem_high` = `electdem_vdem_high_owid`, 
         `electdem_vdem_low_owid` = `electdem_vdem_low_owid`)
democracy
#> # A tibble: 31,995 × 6
#>    entity      code   year electoral_democ…¹ vdem_…² elect…³
#>  * <chr>       <chr> <int>             <dbl>   <dbl>   <dbl>
#>  1 Afghanistan AFG    1789             0.018   0.026   0.012
#>  2 Afghanistan AFG    1790             0.018   0.026   0.012
#>  3 Afghanistan AFG    1791             0.018   0.026   0.012
#>  4 Afghanistan AFG    1792             0.018   0.026   0.012
#>  5 Afghanistan AFG    1793             0.018   0.026   0.012
#>  6 Afghanistan AFG    1794             0.018   0.026   0.012
#>  7 Afghanistan AFG    1795             0.018   0.026   0.012
#>  8 Afghanistan AFG    1796             0.018   0.026   0.012
#>  9 Afghanistan AFG    1797             0.018   0.026   0.012
#> 10 Afghanistan AFG    1798             0.018   0.026   0.012
#> # … with 31,985 more rows, and abbreviated variable names
#> #   ¹​electoral_democracy, ²​vdem_high,
#> #   ³​electdem_vdem_low_owid
…
25.3.2.2.6 owid_covid

owid_covid: Get the Our World in Data covid-19 dataset

owid_covid()

See the detail at the GitHub site.

Example

covid <- owid_covid()

covid %>% filter(location == "Japan")
#> # A tibble: 1,115 × 67
#>    iso_code continent location date       total_ca…¹ new_c…²
#>    <chr>    <chr>     <chr>    <date>          <dbl>   <dbl>
#>  1 JPN      Asia      Japan    2020-01-22          2      NA
#>  2 JPN      Asia      Japan    2020-01-23          2       0
#>  3 JPN      Asia      Japan    2020-01-24          2       0
#>  4 JPN      Asia      Japan    2020-01-25          2       0
#>  5 JPN      Asia      Japan    2020-01-26          4       2
#>  6 JPN      Asia      Japan    2020-01-27          4       0
#>  7 JPN      Asia      Japan    2020-01-28          7       3
#>  8 JPN      Asia      Japan    2020-01-29          7       0
#>  9 JPN      Asia      Japan    2020-01-30         11       4
#> 10 JPN      Asia      Japan    2020-01-31         15       4
#> # … with 1,105 more rows, 61 more variables:
#> #   new_cases_smoothed <dbl>, total_deaths <dbl>,
#> #   new_deaths <dbl>, new_deaths_smoothed <dbl>,
#> #   total_cases_per_million <dbl>,
#> #   new_cases_per_million <dbl>,
#> #   new_cases_smoothed_per_million <dbl>,
#> #   total_deaths_per_million <dbl>, …
…
Let’s use the human rights protection dataset.

rights <- owid("human-rights-protection")
rights
#> # A tibble: 11,273 × 4
#>    entity      code   year `Human rights protection`
#>  * <chr>       <chr> <int>                     <dbl>
#>  1 Afghanistan AFG    1946                     0.829
#>  2 Afghanistan AFG    1947                     0.878
#>  3 Afghanistan AFG    1948                     0.935
#>  4 Afghanistan AFG    1949                     0.966
#>  5 Afghanistan AFG    1950                     1.01 
#>  6 Afghanistan AFG    1951                     1.09 
#>  7 Afghanistan AFG    1952                     1.13 
#>  8 Afghanistan AFG    1953                     1.18 
#>  9 Afghanistan AFG    1954                     1.22 
#> 10 Afghanistan AFG    1955                     1.22 
#> # … with 11,263 more rows
…
Get a dataset used in an OWID chart.

owid("share-of-individuals-using-the-internet") %>% top_n(1)
#> Selecting by Individuals using the Internet (% of
#> population)
#> # A tibble: 1 × 4
#>   entity               code   year Individuals using the I…¹
#>   <chr>                <chr> <int>                     <dbl>
#> 1 United Arab Emirates ARE    2020                       100
#> # … with abbreviated variable name
#> #   ¹​`Individuals using the Internet (% of population)`

internet <- owid("share-of-individuals-using-the-internet", rename = "internet_use")
internet
#> # A tibble: 6,660 × 4
#>    entity      code   year internet_use
#>  * <chr>       <chr> <int>        <dbl>
#>  1 Afghanistan AFG    1990      0      
#>  2 Afghanistan AFG    1991      0      
#>  3 Afghanistan AFG    1992      0      
#>  4 Afghanistan AFG    1993      0      
#>  5 Afghanistan AFG    1994      0      
#>  6 Afghanistan AFG    1995      0      
#>  7 Afghanistan AFG    2001      0.00472
#>  8 Afghanistan AFG    2002      0.00456
#>  9 Afghanistan AFG    2003      0.0879 
#> 10 Afghanistan AFG    2004      0.106  
#> # … with 6,650 more rows
…
25.4.3 Democracy - modified from vignette

owid_search("democrac") %>% as_tibble()
#> # A tibble: 106 × 2
#>    titles                                           chart_id
#>    <chr>                                            <chr>   
#>  1 Child mortality rate vs. electoral democracy     child-m…
#>  2 People living in democracies and non-democracies world-p…
#>  3 Age of democracy                                 age-of-…
#>  4 Age of democracy                                 age-of-…
#>  5 Age of democracy                                 age-of-…
#>  6 Age of electoral democracy                       age-of-…
#>  7 Age of electoral democracy                       age-of-…
#>  8 Age of liberal democracy                         age-of-…
#>  9 Citizen satisfaction with democracy              citizen…
#> 10 Citizen support for democracy                    citizen…
#> # … with 96 more rows

owid("electoral-democracy") %>% top_n(1)
#> Selecting by electdem_vdem_low_owid
#> # A tibble: 1 × 6
#>   entity code   year `Electoral democracy` electde…¹ elect…²
#>   <chr>  <chr> <int>                 <dbl>     <dbl>   <dbl>
#> 1 Sweden SWE    2012                 0.926     0.958   0.905
#> # … with abbreviated variable names
#> #   ¹​electdem_vdem_high_owid, ²​electdem_vdem_low_owid

democracy <- owid("electoral-democracy", rename = c("electoral_democracy", "vdem_high", "vdem_low"))
democracy
#> # A tibble: 31,995 × 6
#>    entity      code   year electoral_democ…¹ vdem_…² vdem_…³
#>  * <chr>       <chr> <int>             <dbl>   <dbl>   <dbl>
#>  1 Afghanistan AFG    1789             0.018   0.026   0.012
#>  2 Afghanistan AFG    1790             0.018   0.026   0.012
#>  3 Afghanistan AFG    1791             0.018   0.026   0.012
#>  4 Afghanistan AFG    1792             0.018   0.026   0.012
#>  5 Afghanistan AFG    1793             0.018   0.026   0.012
#>  6 Afghanistan AFG    1794             0.018   0.026   0.012
#>  7 Afghanistan AFG    1795             0.018   0.026   0.012
#>  8 Afghanistan AFG    1796             0.018   0.026   0.012
#>  9 Afghanistan AFG    1797             0.018   0.026   0.012
#> 10 Afghanistan AFG    1798             0.018   0.026   0.012
#> # … with 31,985 more rows, and abbreviated variable names
#> #   ¹​electoral_democracy, ²​vdem_high, ³​vdem_low
…
