Chapter 10 Responses to Questions | A Minimal Book Example
…
  Skip to main content

        A Minimal Book Example

      Show table of contents

10 Responses to Questions

10.1 Q1. Two categorical variables and one numerical variables

Eg. Smoking, Alcohol and (O)esophageal Cancer

(df_esoph <- as_tibble(esoph))
#> # A tibble: 88 × 5
#>    agegp alcgp     tobgp    ncases ncontrols
#>    <ord> <ord>     <ord>     <dbl>     <dbl>
#>  1 25-34 0-39g/day 0-9g/day      0        40
#>  2 25-34 0-39g/day 10-19         0        10
#>  3 25-34 0-39g/day 20-29         0         6
#>  4 25-34 0-39g/day 30+           0         5
#>  5 25-34 40-79     0-9g/day      0        27
#>  6 25-34 40-79     10-19         0         7
#>  7 25-34 40-79     20-29         0         4
#>  8 25-34 40-79     30+           0         7
#>  9 25-34 80-119    0-9g/day      0         2
#> 10 25-34 80-119    10-19         0         1
#> # … with 78 more rows
…
