Chapter 10 tidyr | Data Analysis for Researchers AY2022
…
df_f2 %>% pivot_longer(cols = 3:5, names_to = "group", values_to = "value")
#> # A tibble: 24 × 4
#>     year iso                   group      value
#>    <dbl> <chr>                 <chr>      <dbl>
#>  1  2021 Europe                Bottom 50% 0.189
#>  2  2021 Europe                Middle 40% 0.453
#>  3  2021 Europe                Top 10%    0.358
#>  4  2021 East Asia             Bottom 50% 0.139
#>  5  2021 East Asia             Middle 40% 0.427
#>  6  2021 East Asia             Top 10%    0.434
#>  7  2021 North America         Bottom 50% 0.132
#>  8  2021 North America         Middle 40% 0.411
#>  9  2021 North America         Top 10%    0.457
#> 10  2021 Russia & Central Asia Bottom 50% 0.147
#> # … with 14 more rows
…
10.8 Pivot data from long to wide:

pivot_wider()
In Console: vignette(“pivot”)

pivot_wider(data, 
  names_from = <name of the column (or columns) to get the name of the output column>,
  values_from = <name of the column to get the value of the output>) 

#> # A tibble: 24 × 4
#>     year iso                   group      value
#>    <dbl> <chr>                 <chr>      <dbl>
#>  1  2021 Europe                Bottom 50% 0.189
#>  2  2021 Europe                Middle 40% 0.453
#>  3  2021 Europe                Top 10%    0.358
#>  4  2021 East Asia             Bottom 50% 0.139
#>  5  2021 East Asia             Middle 40% 0.427
#>  6  2021 East Asia             Top 10%    0.434
#>  7  2021 North America         Bottom 50% 0.132
#>  8  2021 North America         Middle 40% 0.411
#>  9  2021 North America         Top 10%    0.457
#> 10  2021 Russia & Central Asia Bottom 50% 0.147
#> # … with 14 more rows
…
References: https://ds-sl.github.io/data-analysis/wir2022.nb.html

10.9.1 Done Last Week

F12: Female share in global labor incomes, 1990-2020

F14: Global carbon inequality, 2019. Group contribution to world emissions (%)

The next is an example of the world map.

10.10 F3: Top 10/Bottom 50 income gaps across the world, 2021

df_f3 <- read_excel("./data/WIR2022s.xlsx", sheet = "data-F3")
df_f3
#> # A tibble: 177 × 3
#>     year Country                T10B50
#>    <dbl> <chr>                   <dbl>
#>  1  2021 United Arab Emirates    19.2 
#>  2  2021 Afghanistan             11.7 
#>  3  2021 Albania                  8.99
#>  4  2021 Armenia                 11.0 
#>  5  2021 Angola                  32.1 
#>  6  2021 Argentina               13.2 
#>  7  2021 Austria                  7.68
#>  8  2021 Australia               10.4 
#>  9  2021 Azerbaijan               9.63
#> 10  2021 Bosnia and Herzegovina   9.32
#> # … with 167 more rows
…
df_f3 %>% arrange(desc(T10B50))
#> # A tibble: 177 × 3
#>     year Country                  T10B50
#>    <dbl> <chr>                     <dbl>
#>  1  2021 Oman                      140. 
#>  2  2021 South Africa               63.1
#>  3  2021 Namibia                    49.0
#>  4  2021 Zambia                     44.4
#>  5  2021 Central African Republic   42.5
#>  6  2021 Mozambique                 38.9
#>  7  2021 Swaziland                  38.1
#>  8  2021 Botswana                   36.5
#>  9  2021 Angola                     32.1
#> 10  2021 Yemen                      32.0
#> # … with 167 more rows

Using the information above, we set breakpoints and use R Base’s cut command to divide into five classes, and add it as a new column using mutate

df_f3 %>% 
  mutate(`Top 10 Bottom 50 Ratio` = cut(T10B50,breaks = c(5, 12, 13, 16, 19,140), 
                                        include.lowest = FALSE)) 
#> # A tibble: 177 × 4
#>     year Country                T10B50 Top 10 Bottom 50 Ra…¹
#>    <dbl> <chr>                   <dbl> <fct>                
#>  1  2021 United Arab Emirates    19.2  (19,140]             
#>  2  2021 Afghanistan             11.7  (5,12]               
#>  3  2021 Albania                  8.99 (5,12]               
#>  4  2021 Armenia                 11.0  (5,12]               
#>  5  2021 Angola                  32.1  (19,140]             
#>  6  2021 Argentina               13.2  (13,16]              
#>  7  2021 Austria                  7.68 (5,12]               
#>  8  2021 Australia               10.4  (5,12]               
#>  9  2021 Azerbaijan               9.63 (5,12]               
#> 10  2021 Bosnia and Herzegovina   9.32 (5,12]               
#> # … with 167 more rows, and abbreviated variable name
#> #   ¹​`Top 10 Bottom 50 Ratio`
…
F6: Global income inequality: Between vs. Within country inequality (Theil index), 1820-2020 - pivot + area

F11: Top 1% vs bottom 50% wealth shares in Western Europe and the US, 1910-2020 - pivot name_sep + fit curve

F8: The rise of private versus the decline of public wealth in rich countries, 1970-2020 - rename + pivot + pivot + fit curve

F15: Per capita emissions acriss the world, 2019 - add row names + dodge

We will discuss geom_smooth and stat_smooth in Chapter 13 applied to F5, F9, F7, F10.

10.13 F5: Global income inequality: T10/B50 ratio, 1820-2020

(df_f5 <- read_excel("./data/WIR2022s.xlsx", sheet = "data-F5"))
#> # A tibble: 24 × 2
#>        y t10b50
#>    <dbl>  <dbl>
#>  1  1820   18.5
#>  2  1850   22.5
#>  3  1880   32.7
#>  4  1900   41.1
#>  5  1910   41.2
#>  6  1920   39.5
#>  7  1930   39.0
#>  8  1940   44.4
#>  9  1950   40.3
#> 10  1960   38.4
#> # … with 14 more rows
…
10.14 F9: Average annual wealth growth rate, 1995-2021 - fit curve + alpha

df_f9 <- read_excel("./data/WIR2022s.xlsx", sheet = "data-F9"); df_f9
#> # A tibble: 127 × 2
#>        p `Wealth growth 1995-2021`
#>    <dbl>                     <dbl>
#>  1     0                    0.0310
#>  2     1                    0.0310
#>  3     2                    0.0310
#>  4     3                    0.0310
#>  5     4                    0.0310
#>  6     5                    0.0310
#>  7     6                    0.0312
#>  8     7                    0.0317
#>  9     8                    0.0322
#> 10     9                    0.0328
#> # … with 117 more rows
…
10.15 F7: Global income inequality, 1820-2020 - pivot + fit curve

df_f7 <- read_excel("./data/WIR2022s.xlsx", sheet = "data-F7"); df_f7
#> # A tibble: 24 × 4
#>        y `Bottom 50%` `Middle 40%` `Top 10%`
#>    <dbl>        <dbl>        <dbl>     <dbl>
#>  1  1820       0.136         0.361     0.503
#>  2  1850       0.118         0.350     0.532
#>  3  1880       0.0870        0.345     0.568
#>  4  1900       0.0724        0.332     0.595
#>  5  1910       0.0729        0.326     0.601
#>  6  1920       0.0755        0.328     0.597
#>  7  1930       0.0714        0.371     0.558
#>  8  1940       0.0629        0.379     0.558
#>  9  1950       0.0687        0.377     0.554
#> 10  1960       0.0701        0.392     0.538
#> # … with 14 more rows
…
10.16 F10: The share of wealth owned by the global 0.1% and billionaires, 2021 - pivot + fit curve

df_f10 <- read_excel("./data/WIR2022s.xlsx", sheet = "data-F10"); df_f10
#> New names:
#> • `` -> `...4`
#> • `` -> `...5`
#> • `` -> `...6`
#> # A tibble: 27 × 6
#>     year bn_hhweal top0.1_hhweal ...4   ...5  ...6
#>    <dbl>     <dbl>         <dbl> <lgl> <dbl> <dbl>
#>  1  1995   0.0108         0.0729 NA       NA    NA
#>  2  1996   0.0114         0.0744 NA       NA    NA
#>  3  1997   0.0101         0.0768 NA       NA    NA
#>  4  1998   0.00995        0.0815 NA       NA    NA
#>  5  1999   0.0112         0.0855 NA       NA    NA
#>  6  2000   0.0115         0.0862 NA       NA    NA
#>  7  2001   0.0139         0.0846 NA       NA    NA
#>  8  2002   0.0119         0.08   NA       NA    NA
#>  9  2003   0.0103         0.08   NA       NA    NA
#> 10  2004   0.0127         0.0828 NA       NA    NA
#> # … with 17 more rows

df_f10 %>% 
  select(year, "Global Billionaire Wealth" = bn_hhweal, "Top 0.01%" = top0.1_hhweal) %>%
  pivot_longer(!year, names_to = "group",".value", values_to = "value")
#> # A tibble: 54 × 3
#>     year group                       value
#>    <dbl> <chr>                       <dbl>
#>  1  1995 Global Billionaire Wealth 0.0108 
#>  2  1995 Top 0.01%                 0.0729 
#>  3  1996 Global Billionaire Wealth 0.0114 
#>  4  1996 Top 0.01%                 0.0744 
#>  5  1997 Global Billionaire Wealth 0.0101 
#>  6  1997 Top 0.01%                 0.0768 
#>  7  1998 Global Billionaire Wealth 0.00995
#>  8  1998 Top 0.01%                 0.0815 
#>  9  1999 Global Billionaire Wealth 0.0112 
#> 10  1999 Top 0.01%                 0.0855 
#> # … with 44 more rows
…
10.18.2 Step 2.

df_f11 %>% 
  rename(!year, US_bot50 = USbot50, US_top1 = UStop1, 
         EU_bot50 = EUbot50, EU_top1 = EUtop1) %>%
  pivot_longer(!year, names_to = c("group",".value"), names_sep = "_")

10.18.3 Step 2.

#> # A tibble: 24 × 4
#>     year group   bot50  top1
#>    <dbl> <chr>   <dbl> <dbl>
#>  1  1910 US    0.00700 0.425
#>  2  1910 EU    0.0128  0.554
#>  3  1920 US    0.0102  0.410
#>  4  1920 EU    0.0139  0.496
#>  5  1930 US    0.00737 0.409
#>  6  1930 EU    0.0175  0.464
#>  7  1940 US    0.0112  0.319
#>  8  1940 EU    0.0282  0.412
#>  9  1950 US    0.0270  0.276
#> 10  1950 EU    0.0272  0.339
#> # … with 14 more rows

10.18.4 Step 3.

df_f11 %>% 
  rename(!year, US_bot50 = USbot50, US_top1 = UStop1, 
         EU_bot50 = EUbot50, EU_top1 = EUtop1) %>%
  pivot_longer(!year, names_to = c("group",".value"), 
               names_sep = "_") %>%
  pivot_longer(3:4, names_to = "type", values_to = "value") 

10.18.5 Step 3.

#> # A tibble: 48 × 4
#>     year group type    value
#>    <dbl> <chr> <chr>   <dbl>
#>  1  1910 US    bot50 0.00700
#>  2  1910 US    top1  0.425  
#>  3  1910 EU    bot50 0.0128 
#>  4  1910 EU    top1  0.554  
#>  5  1920 US    bot50 0.0102 
#>  6  1920 US    top1  0.410  
#>  7  1920 EU    bot50 0.0139 
#>  8  1920 EU    top1  0.496  
#>  9  1930 US    bot50 0.00737
#> 10  1930 US    top1  0.409  
#> # … with 38 more rows
…
The following is similar to the previous example.

10.19 F8: The rise of private versus the decline of public wealth in rich countries, 1970-2020 - rename + pivot + pivot + fit curve

df_f8 <- read_excel("./data/WIR2022s.xlsx", sheet = "data-F8"); df_f8
#> # A tibble: 51 × 17
#>     year Germany German…¹ Spain Spain…² France Franc…³    UK
#>    <dbl>   <dbl>    <dbl> <dbl>   <dbl>  <dbl>   <dbl> <dbl>
#>  1  1970   1.11      2.30 0.604    4.06  0.422    3.12 0.601
#>  2  1971   1.12      2.25 0.657    4.53  0.443    3.06 0.689
#>  3  1972   1.11      2.27 0.624    4.36  0.467    3.08 0.790
#>  4  1973   1.11      2.23 0.596    4.46  0.478    3.06 0.929
#>  5  1974   1.13      2.25 0.586    4.64  0.498    3.03 1.09 
#>  6  1975   1.12      2.35 0.602    4.83  0.545    3.12 1.00 
#>  7  1976   1.03      2.34 0.581    4.46  0.561    3.08 0.918
#>  8  1977   1.01      2.42 0.586    4.10  0.567    3.10 0.867
#>  9  1978   0.990     2.52 0.604    4.10  0.580    3.20 0.881
#> 10  1979   0.989     2.55 0.621    4.20  0.624    3.30 0.955
#> # … with 41 more rows, 9 more variables:
#> #   `UK (private)` <dbl>, Japan <dbl>,
#> #   `Japan (private)` <dbl>, Norway <dbl>,
#> #   `Norway (private)` <dbl>, USA <dbl>,
#> #   `USA (private)` <dbl>, gwealAVGRICH <dbl>,
#> #   pwealAVGRICH <dbl>, and abbreviated variable names
#> #   ¹​`Germany (private)`, ²​`Spain (private)`, …
…
10.19.1 Step 1

df_f8 %>% 
  select(year, Germany_public = Germany, Germany_private = 'Germany (private)', 
         Spain_public = Spain, Spain_private = 'Spain (private)', 
         France_public = France, France_private = 'France (private)', 
         UK_public  = UK, UK_private = 'UK (private)', 
         Japan_public = Japan, Japan_private = 'Japan (private)', 
         Norway_public = Norway, Norway_private = 'Norway (private)',
         USA_public = USA, USA_private = 'USA (private)') 

#> # A tibble: 51 × 15
#>     year Germany_p…¹ Germa…² Spain…³ Spain…⁴ Franc…⁵ Franc…⁶
#>    <dbl>       <dbl>   <dbl>   <dbl>   <dbl>   <dbl>   <dbl>
#>  1  1970       1.11     2.30   0.604    4.06   0.422    3.12
#>  2  1971       1.12     2.25   0.657    4.53   0.443    3.06
#>  3  1972       1.11     2.27   0.624    4.36   0.467    3.08
#>  4  1973       1.11     2.23   0.596    4.46   0.478    3.06
#>  5  1974       1.13     2.25   0.586    4.64   0.498    3.03
#>  6  1975       1.12     2.35   0.602    4.83   0.545    3.12
#>  7  1976       1.03     2.34   0.581    4.46   0.561    3.08
#>  8  1977       1.01     2.42   0.586    4.10   0.567    3.10
#>  9  1978       0.990    2.52   0.604    4.10   0.580    3.20
#> 10  1979       0.989    2.55   0.621    4.20   0.624    3.30
#> # … with 41 more rows, 8 more variables: UK_public <dbl>,
#> #   UK_private <dbl>, Japan_public <dbl>,
#> #   Japan_private <dbl>, Norway_public <dbl>,
#> #   Norway_private <dbl>, USA_public <dbl>,
#> #   USA_private <dbl>, and abbreviated variable names
#> #   ¹​Germany_public, ²​Germany_private, ³​Spain_public,
#> #   ⁴​Spain_private, ⁵​France_public, ⁶​France_private

10.19.2 Step 2.

df_f8 %>% 
  select(year, Germany_public = Germany, Germany_private = 'Germany (private)', 
         Spain_public = Spain, Spain_private = 'Spain (private)', 
         France_public = France, France_private = 'France (private)', 
         UK_public  = UK, UK_private = 'UK (private)', 
         Japan_public = Japan, Japan_private = 'Japan (private)', 
         Norway_public = Norway, Norway_private = 'Norway (private)',
         USA_public = USA, USA_private = 'USA (private)') %>%
  pivot_longer(!year, names_to = c("country",".value"), names_sep = "_") 

#> # A tibble: 357 × 4
#>     year country public private
#>    <dbl> <chr>    <dbl>   <dbl>
#>  1  1970 Germany  1.11     2.30
#>  2  1970 Spain    0.604    4.06
#>  3  1970 France   0.422    3.12
#>  4  1970 UK       0.601    2.85
#>  5  1970 Japan    0.719    3.09
#>  6  1970 Norway  NA       NA   
#>  7  1970 USA      0.364    3.26
#>  8  1971 Germany  1.12     2.25
#>  9  1971 Spain    0.657    4.53
#> 10  1971 France   0.443    3.06
#> # … with 347 more rows

10.19.3 Step 3.

df_f8 %>% 
  select(year, Germany_public = Germany, Germany_private = 'Germany (private)', 
         Spain_public = Spain, Spain_private = 'Spain (private)', 
         France_public = France, France_private = 'France (private)', 
         UK_public  = UK, UK_private = 'UK (private)', 
         Japan_public = Japan, Japan_private = 'Japan (private)', 
         Norway_public = Norway, Norway_private = 'Norway (private)',
         USA_public = USA, USA_private = 'USA (private)') %>%
  pivot_longer(!year, names_to = c("country",".value"), names_sep = "_") %>%
  pivot_longer(3:4, names_to = "type", values_to = "value")

#> # A tibble: 714 × 4
#>     year country type    value
#>    <dbl> <chr>   <chr>   <dbl>
#>  1  1970 Germany public  1.11 
#>  2  1970 Germany private 2.30 
#>  3  1970 Spain   public  0.604
#>  4  1970 Spain   private 4.06 
#>  5  1970 France  public  0.422
#>  6  1970 France  private 3.12 
#>  7  1970 UK      public  0.601
#>  8  1970 UK      private 2.85 
#>  9  1970 Japan   public  0.719
#> 10  1970 Japan   private 3.09 
#> # … with 704 more rows
…
10.20 F15: Per capita emissions acriss the world, 2019 - add row names + dodge

df_f15 <- read_excel("./data/WIR2022s.xlsx", sheet = "data-F15"); df_f15
#> # A tibble: 24 × 4
#>    regionWID               group       tcap  mark
#>    <chr>                   <chr>      <dbl> <dbl>
#>  1 East Asia               Bottom 50%  3.12     1
#>  2 <NA>                    Middle 40%  7.91     1
#>  3 <NA>                    Top 10%    38.9      1
#>  4 Europe                  Bottom 50%  5.09     2
#>  5 <NA>                    Middle 40% 10.6      2
#>  6 <NA>                    Top 10%    29.2      2
#>  7 North America           Bottom 50%  9.67     3
#>  8 <NA>                    Middle 40% 21.7      3
#>  9 <NA>                    Top 10%    73.0      3
#> 10 South & South-East Asia Bottom 50%  1.04     4
#> # … with 14 more rows
…
