Chapter 26 UN Data | Data Analysis for Researchers AY2022
…
We can see that the Year is from 2000 to 2021. The first variable, Region/Country/Area and the fifth variable, Value are dbl, i.e., double; hence, these are numerical variables, and you can see them from the summary as well. But it is not easy to see other variables. Let us try them one by one.

un_edu %>% distinct(...2)
#> # A tibble: 224 × 1
#>    ...2                         
#>    <chr>                        
#>  1 Total, all countries or areas
#>  2 Northern Africa              
#>  3 Sub-Saharan Africa           
#>  4 Northern America             
#>  5 Latin America & the Caribbean
#>  6 Central Asia                 
#>  7 Eastern Asia                 
#>  8 South-eastern Asia           
#>  9 Southern Asia                
#> 10 Western Asia                 
#> # … with 214 more rows
…
un_edu %>% distinct(Source)
#> # A tibble: 1 × 1
#>   Source                                                    
#>   <chr>                                                     
#> 1 United Nations Educational, Scientific and Cultural Organ…

We may need to handle Footnotes carefully later, but for the first exploration, we need, …2 for Region, Year, Series, Values.

df_un_edu <- un_edu %>%
  select(Region = ...2, Year, Series, Value)
df_un_edu
#> # A tibble: 7,282 × 4
#>    Region                         Year Series          Value
#>    <chr>                         <dbl> <chr>           <dbl>
#>  1 Total, all countries or areas  2005 Students enro… 6.79e5
#>  2 Total, all countries or areas  2005 Gross enrollm… 1.04e2
#>  3 Total, all countries or areas  2005 Gross enrollm… 9.97e1
#>  4 Total, all countries or areas  2005 Students enro… 5.09e5
#>  5 Total, all countries or areas  2005 Gross enrollm… 6.58e1
#>  6 Total, all countries or areas  2005 Gross enrollm… 6.23e1
#>  7 Total, all countries or areas  2005 Students enro… 2.00e5
#>  8 Total, all countries or areas  2005 Gross enrollm… 5.12e1
#>  9 Total, all countries or areas  2005 Gross enrollm… 4.83e1
#> 10 Total, all countries or areas  2010 Students enro… 6.97e5
#> # … with 7,272 more rows

Is there a way to separate regions from countries?

df_un_edu %>% left_join(wdi_cache$country, by = c("Region"="country")) %>%
  filter(!is.na(iso2c)) %>% distinct(Region)
#> # A tibble: 176 × 1
#>    Region             
#>    <chr>              
#>  1 Afghanistan        
#>  2 Albania            
#>  3 Algeria            
#>  4 Andorra            
#>  5 Angola             
#>  6 Antigua and Barbuda
#>  7 Argentina          
#>  8 Armenia            
#>  9 Aruba              
#> 10 Australia          
#> # … with 166 more rows

df_un_edu %>% left_join(wdi_cache$country, by = c("Region"="country")) %>%
  filter(is.na(iso2c)) %>% distinct(Region)
#> # A tibble: 48 × 1
#>    Region                       
#>    <chr>                        
#>  1 Total, all countries or areas
#>  2 Northern Africa              
#>  3 Sub-Saharan Africa           
#>  4 Northern America             
#>  5 Latin America & the Caribbean
#>  6 Central Asia                 
#>  7 Eastern Asia                 
#>  8 South-eastern Asia           
#>  9 Southern Asia                
#> 10 Western Asia                 
#> # … with 38 more rows
…
df_un_pop %>% distinct(Source)
#> # A tibble: 4 × 1
#>   Source                                                    
#>   <chr>                                                     
#> 1 "United Nations Population Division, New York, World Popu…
#> 2 "United Nations Population Division, New York, World Popu…
#> 3 "United Nations Statistics Division, New York, \"Demograp…
#> 4 "World Health Organization (WHO), the United Nations Chil…

df_un_pop %>% distinct(Footnotes)
#> # A tibble: 82 × 1
#>    Footnotes                                                
#>    <chr>                                                    
#>  1 <NA>                                                     
#>  2 Projected estimate (medium fertility variant).           
#>  3 Including Saint Helena.                                  
#>  4 Projected estimate (medium fertility variant).;Including…
#>  5 Including Bermuda, Greenland, and Saint Pierre and Mique…
#>  6 Projected estimate (medium fertility variant).;Including…
#>  7 Including Anguilla, Bonaire, Sint Eustatius and Saba, Br…
#>  8 Projected estimate (medium fertility variant).;Including…
#>  9 Including Falkland Islands (Malvinas).                   
#> 10 Projected estimate (medium fertility variant).;Including…
#> # … with 72 more rows

df_un_pop %>% distinct(X)
#> # A tibble: 264 × 1
#>    X                            
#>    <chr>                        
#>  1 Total, all countries or areas
#>  2 Africa                       
#>  3 Northern Africa              
#>  4 Sub-Saharan Africa           
#>  5 Eastern Africa               
#>  6 Middle Africa                
#>  7 Southern Africa              
#>  8 Western Africa               
#>  9 Northern America             
#> 10 Latin America & the Caribbean
#> # … with 254 more rows
…
un_pop <- df_un_pop %>% select(Region = X, Year, Series, Value)
un_pop
#> # A tibble: 6,654 × 4
#>    Region                         Year Series          Value
#>    <chr>                         <dbl> <chr>           <dbl>
#>  1 Total, all countries or areas  2010 Population ann…   1.3
#>  2 Total, all countries or areas  2010 Total fertilit…   2.6
#>  3 Total, all countries or areas  2010 Infant mortali…  37.1
#>  4 Total, all countries or areas  2010 Maternal morta… 253  
#>  5 Total, all countries or areas  2010 Life expectanc…  70.1
#>  6 Total, all countries or areas  2010 Life expectanc…  67.6
#>  7 Total, all countries or areas  2010 Life expectanc…  72.7
#>  8 Total, all countries or areas  2015 Population ann…   1.2
#>  9 Total, all countries or areas  2015 Total fertilit…   2.5
#> 10 Total, all countries or areas  2015 Infant mortali…  31.5
#> # … with 6,644 more rows

Let us change the names of series.

un_pop_wide <- un_pop %>% pivot_wider(names_from = Series, values_from = Value)
colnames(un_pop_wide) <- c("Region", "Year", "IncRate", "Fert", "InfDeath", "MatDeath", "LifeExp", "LifeExpM", "LifeExpF")
un_pop_wide
#> # A tibble: 1,005 × 9
#>    Region         Year IncRate  Fert InfDe…¹ MatDe…² LifeExp
#>    <chr>         <dbl>   <dbl> <dbl>   <dbl>   <dbl>   <dbl>
#>  1 Total, all c…  2010     1.3   2.6    37.1     253    70.1
#>  2 Total, all c…  2015     1.2   2.5    31.5     225    71.8
#>  3 Total, all c…  2017     1.1   2.5    29.6     218    72.3
#>  4 Total, all c…  2022     0.8   2.3    27.5      NA    71.7
#>  5 Africa         2010     2.6   4.9    60.9      NA    58.6
#>  6 Africa         2015     2.6   4.6    52.5      NA    61.1
#>  7 Africa         2022     2.3   4.2    44.2      NA    62.2
#>  8 Northern Afr…  2010     1.9   3.2    29.5     148    69.6
#>  9 Northern Afr…  2015     2.1   3.4    25.3     120    70.9
#> 10 Northern Afr…  2017     2     3.2    24.2     115    71.5
#> # … with 995 more rows, 2 more variables: LifeExpM <dbl>,
#> #   LifeExpF <dbl>, and abbreviated variable names
#> #   ¹​InfDeath, ²​MatDeath

un_pop_long <- un_pop_wide %>% pivot_longer(cols = -c(1,2), names_to = "Series", values_to = "Value")
un_pop_long                                           
#> # A tibble: 7,035 × 4
#>    Region                         Year Series   Value
#>    <chr>                         <dbl> <chr>    <dbl>
#>  1 Total, all countries or areas  2010 IncRate    1.3
#>  2 Total, all countries or areas  2010 Fert       2.6
#>  3 Total, all countries or areas  2010 InfDeath  37.1
#>  4 Total, all countries or areas  2010 MatDeath 253  
#>  5 Total, all countries or areas  2010 LifeExp   70.1
#>  6 Total, all countries or areas  2010 LifeExpM  67.6
#>  7 Total, all countries or areas  2010 LifeExpF  72.7
#>  8 Total, all countries or areas  2015 IncRate    1.2
#>  9 Total, all countries or areas  2015 Fert       2.5
#> 10 Total, all countries or areas  2015 InfDeath  31.5
#> # … with 7,025 more rows
…
